# All unpinned blobs were pulled from VIOLET_V12.5.4.0.QFHCNXM

# ACDB
vendor/etc/acdbdata/adsp_avs_config.acdb
vendor/etc/acdbdata/IDP/IDP_Bluetooth_cal.acdb
vendor/etc/acdbdata/IDP/IDP_Codec_cal.acdb
vendor/etc/acdbdata/IDP/IDP_General_cal.acdb
vendor/etc/acdbdata/IDP/IDP_Global_cal.acdb
vendor/etc/acdbdata/IDP/IDP_Handset_cal.acdb
vendor/etc/acdbdata/IDP/IDP_Hdmi_cal.acdb
vendor/etc/acdbdata/IDP/IDP_Headset_cal.acdb
vendor/etc/acdbdata/IDP/IDP_Speaker_cal.acdb
vendor/etc/acdbdata/IDP/IDP_workspaceFile.qwsp

# ACDB loader - from LA.UM.9.1.r1-10900-SMxxx0.0
vendor/lib64/libacdb-fts.so|24fdd7f88649516f165b52fba3ac1de5065bcf0c
vendor/lib64/libacdbloader.so|4f4541c27bdf11258284133e60df36d4a88b0435
vendor/lib64/libacdbrtac.so|b6cd70bb23736746ea0c1a06979273ccea671e82
vendor/lib/libacdb-fts.so|0018570fcbbf69eafc2be93342a277fc9fa4b62d
vendor/lib/libacdbloader.so|3136289748b95c45dbba1809f1ed4c4e2e5bd8e5
vendor/lib/libacdbrtac.so|9e30364f762731e56a2c5cc999bc048e304651a6

# ADSP - from LA.UM.9.1.r1-10900-SMxxx0.0
vendor/bin/adsprpcd|5e246a6f5d2dca27e29b233a17e4673532191b95
vendor/etc/init/vendor.qti.adsprpc-sscrpc-service.rc|77f5aaf6d773ee545e39bc5fdc99c65434c05379
vendor/lib/libadsp_default_listener.so|49d7644708419ea077ffd9d00901ebf6cdd4377c
vendor/lib/libadsprpc.so|eae169c0fd03286d49419e521949b1f57fc2e38b
vendor/lib/libmdsprpc.so|8693fccb16c50b26c27cb304d571596526995fed
vendor/lib/libsdsprpc.so|bb87c1abe6d37b342e266d865267d68acba9a43c
vendor/lib64/libadsp_default_listener.so|3ebcf635d6cdc447b8ecd40ea76bda39bf82c308
vendor/lib64/libadsprpc.so|e031fbefb26612616a00fdbf31eb4a06a91e2b08
vendor/lib64/libmdsprpc.so|a460ba732386b5ac2a2f2240a24fe8cc02c13f33
vendor/lib64/libsdsprpc.so|b1d78f6d96d912957e99ecf49ff2da73ecd71432

# ADSP Modules - from LA.UM.9.1.r1-10900-SMxxx0.0
vendor/lib/rfsa/adsp/capi_v2_aptX_Classic.so|59cbdf5d84ba2ff64014941f3ad9e6c2c35e2c06
vendor/lib/rfsa/adsp/capi_v2_aptX_HD.so|e25f1087edc95d2ff76c1e37787ca37aae2cf175
vendor/lib/rfsa/adsp/capi_v2_aptX_CLHDAD_Encoder.so|136ee309e7c9892d55b3e87e45cd0ab39120658e
vendor/lib/rfsa/adsp/dirac_resource.dar|8697ff9e77a872b849cd2ce95afa45dac97cb01e
vendor/lib/rfsa/adsp/libdirac-capiv2.so|c1432e70a935bc34b3787a4973fce4bab1faf4e2
vendor/lib/rfsa/adsp/libVC1Dec.so|732ede3ede9e6e1b09c439156f62a07d8fa0ee3e
vendor/lib/rfsa/adsp/libVC1DecDsp_skel.so|eff059c5a29a44d205bd60ad24aecc46416e939e
vendor/lib/rfsa/adsp/libapps_mem_heap.so|1cdac354c585c0d236d77b0888ebd5894b333326
vendor/lib/rfsa/adsp/libcamera_nn_skel.so|29d949909c9f115491b781ff93604be238e0f965
vendor/lib/rfsa/adsp/libcvpdsp_skel.so|58cbb97212073cf7e4780c6d77a7628c3ee845bd
vendor/lib/rfsa/adsp/libdspCV_skel.so|c6034c389845a94a4054dd0fe9a0381adbf086e5
vendor/lib/rfsa/adsp/libdsp_streamer_add_constant.so|c4ae81542111429bde7e08be7e80c8866d466875
vendor/lib/rfsa/adsp/libdsp_streamer_binning.so|00eb6acc7c864371b932f95ff98e98351c6508d8
vendor/lib/rfsa/adsp/libdsp_streamer_skel.so|ece66eb42105bb88f196e5678919393249ea2aac
vendor/lib/rfsa/adsp/libfastcvadsp.so|5c86de2533d60534ce5b07e6be13bcf988e4b03b
vendor/lib/rfsa/adsp/libfastcvdsp_skel.so|f3f79fd19ade4ec0947fd901d216e9c39ef5e276
vendor/lib/rfsa/adsp/libhexagon_nn_skel.so|79188b620f3fc48421267990d6dd20d738d6ddd4
vendor/lib/rfsa/adsp/libsns_device_mode_skel.so|733a5b8861bb6eb1285bb8982992531c94800997
vendor/lib/rfsa/adsp/libsns_low_lat_stream_skel.so|c30bb30eecf968e02f72c055d3cc13a7f769644f

# Alarm - from LA.UM.9.1.r1-10900-SMxxx0.0
product/app/PowerOffAlarm/PowerOffAlarm.apk|bc906abd03e4a243201dde626b6580fd8a4f73ce
vendor/bin/hw/vendor.qti.hardware.alarm@1.0-service|23ab1405821bb30553f20ad5e785959008440f7f
vendor/bin/power_off_alarm|dcab61bc1312941b506cb22b1236edee72080318
vendor/etc/init/vendor.qti.hardware.alarm@1.0-service.rc|a03a9a1c818595b19272ea6ffb466e23a7fc3b05
vendor/lib64/hw/vendor.qti.hardware.alarm@1.0-impl.so|02a314f7dc19b06dfd9a45b0c0bcd0aca6e822bb
vendor/lib64/vendor.qti.hardware.alarm@1.0.so|7c89039a1d670ff6f92ada82bd1ff2c2366dd145

# ANT+ - from LA.UM.9.1.r1-10900-SMxxx0.0
vendor/lib64/hw/com.dsi.ant@1.0-impl.so|0f8f5c3081d0ef745e0896b1fceea15f52fe3b21

# Audio - from LA.UM.9.1.r1-10900-SMxxx0.0
vendor/lib64/libadiertac.so|c49add9b914ee45b33b89a3432feb07c4743d4ff
vendor/lib64/libaudcal.so|9dd4741a2a52e89b169939e7ee19a6f068ce914b
vendor/lib64/libaudioparsers.so|10dbc5e65c39ccfd30f37bb6394b389e724b7ff9
vendor/lib64/libqtigef.so|87f89f796ea958cbc7ae103669ece676945e24cf
vendor/lib/libadiertac.so|343d6772f7db8e3c2f0d48b37f858fc8c73254fa
vendor/lib/libaudcal.so|7d6e782971519eb41752e21859991d11fb7f039c
vendor/lib/libaudioparsers.so|25cd3ce7766eb5bb0d516668fedcc8f82788586a
vendor/lib/libdrc.so|b066f176f119847059c5aa148f73e1b042fbeab3
vendor/lib/libqtigef.so|fdfa65bca9034596438331ecb99c132eb401c32f
vendor/lib/libsurround_3mic_proc.so|e8e086123e0c1dc17f008f97edb3611cd4c702e1

# Audio FX modules - from LA.UM.9.1.r1-10900-SMxxx0.0
system_ext/etc/permissions/audiosphere.xml|015ad7be4921039238bfa3d34d052d752453e49c
system_ext/framework/audiosphere.jar|9c28317f12b93a6d881c80a991ff24716fce4a12
vendor/lib64/soundfx/libasphere.so|b9296f601776e631be0f347f8f10d26689103d12
vendor/lib/soundfx/libasphere.so|b2daeb875914a33575c7d7a67429f25d09d35489

# Audio (speaker amplifier) firmware
vendor/firmware/tas2563_uCDSP.bin

# Bluetooth Aptx - from sunfish-user 11 RQ1A.201205.008 6943376 release-keys
system_ext/lib64/libaptX_encoder.so|df1c89d7af1bb35808d5fe3496b04ba066c10cbc
system_ext/lib64/libaptXHD_encoder.so|e13fa70c97caaa24d061678bdee608eb8850a69e

# Bluetooth - from SWEETEEAGlobal_V13.0.10.0.SKFEUXM
vendor/bin/hw/android.hardware.bluetooth@1.0-service-qti|07d96d0d3c4a500b14ea3c97e02b9eb5ee2bbc4d
vendor/etc/init/android.hardware.bluetooth@1.0-service-qti.rc|f4ee3b2da2b08647447869ade86ec63f7340accc
vendor/lib64/hw/android.hardware.bluetooth@1.0-impl-qti.so|5ff052739374f38975a49bcd389563a33d70ce2b
vendor/lib64/libbt-hidlclient.so|ff301380cf3c0ff68d2b7fcda3ba428ebf0a859e
vendor/lib64/libbtnv.so|0c74a43550b939b9496b03b3285fa950cf560c48

# Bluetooth (A2DP) - from SWEETEEAGlobal_V13.0.10.0.SKFEUXM
vendor/lib/hw/audio.bluetooth_qti.default.so|4e0a255af5692e6c627cb4fdd80844869c0a9cd1
vendor/lib/hw/vendor.qti.hardware.bluetooth_audio@2.0-impl.so|cc076ce39bdb7361de30904802124808b79c5d14
vendor/lib/hw/vendor.qti.hardware.bluetooth_audio@2.1-impl.so|9f2f7bb47fac7b3b2a89d443ed73f3d378dd88d5
vendor/lib/btaudio_offload_if.so|a29488cfbf08a02b0d8d493a4fbe01ce2e5da3bc
vendor/lib/libbluetooth_audio_session_qti.so|d1d4fab5a88df386f0668de992758a76ee1e7595
vendor/lib/libbluetooth_audio_session_qti_2_1.so|1844b0557b10bb31ae9ffe054ab18bba710fa685

# Bluetooth (Configstore) - from SWEETEEAGlobal_V13.0.10.0.SKFEUXM
vendor/lib64/hw/vendor.qti.hardware.btconfigstore@2.0-impl.so|3e1a8c52d73ef5e67bea68610906627226aabe21

# Bluetooth (Dependency) - from SWEETEEAGlobal_V13.0.10.0.SKFEUXM
vendor/lib64/libsoc_helper.so|a7de8fae284f55adf21ca161155b41d6df9dae56

# Bluetooth (SAR) - from SWEETEEAGlobal_V13.0.10.0.SKFEUXM
vendor/lib64/hw/vendor.qti.hardware.bluetooth_sar@1.1-impl.so|156ec51ccb53f667605cf99422abf9357888b4b6
vendor/lib64/vendor.qti.hardware.bluetooth_sar@1.0.so|23706dcfa35cc6f7dee934e13886c19a56a9aa12
vendor/lib64/vendor.qti.hardware.bluetooth_sar@1.1.so|ece3dafc4447e8302109851c3a6b0d3978b3506d

# Camera
vendor/etc/camera/beauty_ui9_intelligent_params.config
vendor/etc/camera/eyelineblush.cng
vendor/etc/camera/lf_facerank_model.bin
vendor/etc/camera/megviifacepp_0_5_2_model
vendor/etc/camera/sdm_ys_32p_120_21_5_perturb50.bin
vendor/etc/camera/vidhance_calibration_F7B
vendor/etc/scve/facereco/gModel.dat
vendor/lib64/camera/com.qti.eeprom.truly_cmb433.so
vendor/lib64/camera/com.qti.sensor.imx318.so
vendor/lib64/camera/com.qti.sensor.imx334.so
vendor/lib64/camera/com.qti.sensor.imx362.so
vendor/lib64/camera/com.qti.sensor.imx376.so
vendor/lib64/camera/com.qti.sensor.imx386.so
vendor/lib64/camera/com.qti.sensor.imx476.so
vendor/lib64/camera/com.qti.sensor.imx519.so
vendor/lib64/camera/com.qti.sensor.imx576.so
vendor/lib64/camera/com.qti.sensor.imx577.so
vendor/lib64/camera/com.qti.sensor.imx586.so
vendor/lib64/camera/com.qti.sensor.imx586_factory.so
vendor/lib64/camera/com.qti.sensor.imx586_semco.so
vendor/lib64/camera/com.qti.sensor.imx586_semco_factory.so
vendor/lib64/camera/com.qti.sensor.imx586_sunny.so
vendor/lib64/camera/com.qti.sensor.imx586_sunny_factory.so
vendor/lib64/camera/com.qti.sensor.max7366_6dof.so
vendor/lib64/camera/com.qti.sensor.max7366_eyetrack.so
vendor/lib64/camera/com.qti.sensor.max7366_ov6211.so
vendor/lib64/camera/com.qti.sensor.max7366_ov9282.so
vendor/lib64/camera/com.qti.sensor.ov12a10.so
vendor/lib64/camera/com.qti.sensor.ov12a10_front.so
vendor/lib64/camera/com.qti.sensor.ov13855.so
vendor/lib64/camera/com.qti.sensor.ov13855_sunny.so
vendor/lib64/camera/com.qti.sensor.ov13880.so
vendor/lib64/camera/com.qti.sensor.ov7251.so
vendor/lib64/camera/com.qti.sensor.ov8856.so
vendor/lib64/camera/com.qti.sensor.s5k2l7.so
vendor/lib64/camera/com.qti.sensor.s5k2x5sp.so
vendor/lib64/camera/com.qti.sensor.s5k5e8.so
vendor/lib64/camera/com.qti.sensor.s5k5e8_semco.so
vendor/lib64/camera/com.qti.sensor.s5k5e8_sunny.so
vendor/lib64/camera/com.qti.sensor.s5k5e9yu05.so
vendor/lib64/camera/com.qti.sensormodule.altek1_imx577.bin
vendor/lib64/camera/com.qti.sensormodule.altek2_imx577.bin
vendor/lib64/camera/com.qti.sensormodule.altek_imx577.bin
vendor/lib64/camera/com.qti.sensormodule.liteon_imx318.bin
vendor/lib64/camera/com.qti.sensormodule.liteon_imx362.bin
vendor/lib64/camera/com.qti.sensormodule.liteon_max7366_6dof.bin
vendor/lib64/camera/com.qti.sensormodule.liteon_max7366_eyetrack.bin
vendor/lib64/camera/com.qti.sensormodule.liteon_max7366_ov6211.bin
vendor/lib64/camera/com.qti.sensormodule.liteon_max7366_ov9282.bin
vendor/lib64/camera/com.qti.sensormodule.liteon_ov7251.bin
vendor/lib64/camera/com.qti.sensormodule.ofilm_imx376.bin
vendor/lib64/camera/com.qti.sensormodule.ofilm_imx586.bin
vendor/lib64/camera/com.qti.sensormodule.ofilm_ov12a10.bin
vendor/lib64/camera/com.qti.sensormodule.ofilm_ov12a10_front.bin
vendor/lib64/camera/com.qti.sensormodule.ofilm_ov13855.bin
vendor/lib64/camera/com.qti.sensormodule.ofilm_ov13880.bin
vendor/lib64/camera/com.qti.sensormodule.ofilm_s5k5e8.bin
vendor/lib64/camera/com.qti.sensormodule.pmd_irs1645.bin
vendor/lib64/camera/com.qti.sensormodule.semco_imx258.bin
vendor/lib64/camera/com.qti.sensormodule.semco_imx386.bin
vendor/lib64/camera/com.qti.sensormodule.semco_imx586.bin
vendor/lib64/camera/com.qti.sensormodule.semco_s5k5e8.bin
vendor/lib64/camera/com.qti.sensormodule.sony_imx334.bin
vendor/lib64/camera/com.qti.sensormodule.sunny_imx519.bin
vendor/lib64/camera/com.qti.sensormodule.sunny_imx576.bin
vendor/lib64/camera/com.qti.sensormodule.sunny_imx586.bin
vendor/lib64/camera/com.qti.sensormodule.sunny_ov13855.bin
vendor/lib64/camera/com.qti.sensormodule.sunny_ov2281.bin
vendor/lib64/camera/com.qti.sensormodule.sunny_s5k2l7.bin
vendor/lib64/camera/com.qti.sensormodule.sunny_s5k5e8.bin
vendor/lib64/camera/com.qti.sensormodule.sunny_s5k5e9yu05.bin
vendor/lib64/camera/com.qti.sensormodule.truly_imx476.bin
vendor/lib64/camera/com.qti.sensormodule.truly_ov8856.bin
vendor/lib64/camera/com.qti.tuned.altek1_imx577.bin
vendor/lib64/camera/com.qti.tuned.altek_imx577.bin
vendor/lib64/camera/com.qti.tuned.default.bin
vendor/lib64/camera/com.qti.tuned.liteon_imx318.bin
vendor/lib64/camera/com.qti.tuned.liteon_imx362.bin
vendor/lib64/camera/com.qti.tuned.liteon_max7366_6dof.bin
vendor/lib64/camera/com.qti.tuned.liteon_max7366_eyetrack.bin
vendor/lib64/camera/com.qti.tuned.liteon_max7366_ov9282.bin
vendor/lib64/camera/com.qti.tuned.liteon_ov7251.bin
vendor/lib64/camera/com.qti.tuned.ofilm_imx376.bin
vendor/lib64/camera/com.qti.tuned.ofilm_imx586.bin
vendor/lib64/camera/com.qti.tuned.ofilm_imx586_cn.bin
vendor/lib64/camera/com.qti.tuned.ofilm_ov12a10.bin
vendor/lib64/camera/com.qti.tuned.ofilm_ov12a10_front.bin
vendor/lib64/camera/com.qti.tuned.ofilm_ov13855.bin
vendor/lib64/camera/com.qti.tuned.ofilm_ov13855_cn.bin
vendor/lib64/camera/com.qti.tuned.ofilm_ov13880.bin
vendor/lib64/camera/com.qti.tuned.ofilm_s5k5e8.bin
vendor/lib64/camera/com.qti.tuned.semco_imx258.bin
vendor/lib64/camera/com.qti.tuned.semco_imx258_mono.bin
vendor/lib64/camera/com.qti.tuned.semco_imx386.bin
vendor/lib64/camera/com.qti.tuned.semco_imx481.bin
vendor/lib64/camera/com.qti.tuned.semco_imx586.bin
vendor/lib64/camera/com.qti.tuned.semco_s5k5e8.bin
vendor/lib64/camera/com.qti.tuned.sunny_imx519.bin
vendor/lib64/camera/com.qti.tuned.sunny_imx586.bin
vendor/lib64/camera/com.qti.tuned.sunny_imx586_cn.bin
vendor/lib64/camera/com.qti.tuned.sunny_ov13855.bin
vendor/lib64/camera/com.qti.tuned.sunny_ov13855_cn.bin
vendor/lib64/camera/com.qti.tuned.sunny_s5k2l7.bin
vendor/lib64/camera/com.qti.tuned.sunny_s5k5e8.bin
vendor/lib64/camera/com.qti.tuned.sunny_s5k5e9yu05.bin
vendor/lib64/camera/com.qti.tuned.truly_ov8856.bin
vendor/lib64/camera/components/com.arcsoft.node.capturebokeh.so
vendor/lib64/camera/components/com.arcsoft.node.hdr.so
vendor/lib64/camera/components/com.arcsoft.node.hdrchecker.so
vendor/lib64/camera/components/com.arcsoft.node.realtimebokeh.so
vendor/lib64/camera/components/com.arcsoft.node.skinbeautifier.so
vendor/lib64/camera/components/com.arcsoft.node.superlowlight.so
vendor/lib64/camera/components/com.qti.camx.chiiqutils.so
vendor/lib64/camera/components/com.qti.eisv2.so
vendor/lib64/camera/components/com.qti.eisv3.so
vendor/lib64/camera/components/com.qti.hvx.addconstant.so
vendor/lib64/camera/components/com.qti.hvx.binning.so
vendor/lib64/camera/components/com.qti.node.aiasd.so
vendor/lib64/camera/components/com.qti.node.depth.so
vendor/lib64/camera/components/com.qti.node.dummyrtb.so
vendor/lib64/camera/components/com.qti.node.dummysat.so
vendor/lib64/camera/components/com.qti.node.eisv2.so
vendor/lib64/camera/components/com.qti.node.eisv3.so
vendor/lib64/camera/components/com.qti.node.fcv.so
vendor/lib64/camera/components/com.qti.node.gpu.so
vendor/lib64/camera/components/com.qti.node.memcpy.so
vendor/lib64/camera/components/com.qti.node.remosaic.so
vendor/lib64/camera/components/com.qti.node.sr.so
vendor/lib64/camera/components/com.qti.node.stich.so
vendor/lib64/camera/components/com.qti.node.swcac.so
vendor/lib64/camera/components/com.qti.node.swregistration.so
vendor/lib64/camera/components/com.qti.node.xiaomigenderage.so
vendor/lib64/camera/components/com.qti.stats.aec.so
vendor/lib64/camera/components/com.qti.stats.af.so
vendor/lib64/camera/components/com.qti.stats.afd.so
vendor/lib64/camera/components/com.qti.stats.asd.so
vendor/lib64/camera/components/com.qti.stats.awb.so
vendor/lib64/camera/components/com.qti.stats.awbwrapper.so
vendor/lib64/camera/components/com.qti.stats.haf.so
vendor/lib64/camera/components/com.qti.stats.hafoverride.so
vendor/lib64/camera/components/com.qti.stats.pdlib.so
vendor/lib64/camera/components/com.qti.stats.pdlibsony.so
vendor/lib64/camera/components/com.qti.stats.pdlibwrapper.so
vendor/lib64/camera/components/com.qtistatic.stats.aec.so
vendor/lib64/camera/components/com.qtistatic.stats.af.so
vendor/lib64/camera/components/com.qtistatic.stats.awb.so
vendor/lib64/camera/components/com.qtistatic.stats.pdlib.so
vendor/lib64/camera/components/com.vidhance.node.eis.so
vendor/lib64/camera/components/com.vidhance.stats.aec_dmbr.so
vendor/lib64/camera/components/com.xiaomi.node.mibokeh.so
vendor/lib64/camera/components/com.xiaomi.node.misegment.so
vendor/lib64/camera/components/GpuKernelRepo.pb
vendor/lib64/camera/components/libdepthmapwrapper.so
vendor/lib64/camera/components/libmmcamera_cac3.so
vendor/lib64/camera/components/model_back.dlc
vendor/lib64/camera/components/model_front.dlc
vendor/lib64/camera/fdconfigpreview.bin
vendor/lib64/camera/fdconfigpreviewlite.bin
vendor/lib64/camera/fdconfigvideo.bin
vendor/lib64/camera/fdconfigvideolite.bin
vendor/lib64/hw/camera.qcom.so
vendor/lib64/hw/com.qti.chi.override.so
vendor/lib64/hw/com.qti.chi.override_moorea.so
vendor/lib64/libarcsoft_beautyshot.so
vendor/lib64/libarcsoft_dualcam_refocus.so
vendor/lib64/libarcsoft_high_dynamic_range.so
vendor/lib64/libarcsoft_portrait_lighting.so
vendor/lib64/libarcsoft_portrait_lighting_c.so
vendor/lib64/libarcsoft_supernight.so
vendor/lib64/libc++_shared.so
vendor/lib64/libcamera_nn_stub.so
vendor/lib64/libcamera_scene.so
vendor/lib64/libcamxfdalgov7.so
vendor/lib64/libcamxfdalgov8.so
vendor/lib64/libcamxfdengine.so
vendor/lib64/libcamxstatscore.so
vendor/lib64/libcamxswprocessalgo.so
vendor/lib64/libcamxtintlessalgo.so
vendor/lib64/libcom.qti.chinodeutils.so
vendor/lib64/libFaceGrade.so
vendor/lib64/libmegface.so
vendor/lib64/libMegviiFacepp-0.5.2.so
vendor/lib64/libmibokeh_660.so
vendor/lib64/libmmcamera_faceproc.so
vendor/lib64/libmmcamera_faceproc2.so
vendor/lib64/libmpbase.so
vendor/lib64/libSNPE.so
vendor/lib64/libsns_device_mode_stub.so
vendor/lib64/libsns_fastRPC_util.so
vendor/lib64/libsns_low_lat_stream_stub.so
vendor/lib64/libsnsapi.so
vendor/lib64/libsnsdiaglog.so
vendor/lib64/libswregistrationalgo.so
vendor/lib64/libsymphony-cpu.so
vendor/lib64/libsymphonypower.so
vendor/lib64/libVDSuperPhotoAPI.so
vendor/lib64/libvidhance.so
vendor/lib64/libXMFD_AgeGender.so
vendor/lib64/mibokeh_660_opencl.bin

# Camera Firmware
vendor/firmware/CAMERA_ICP.elf

# CDSP - from LA.UM.9.1.r1-10900-SMxxx0.0
vendor/bin/cdsprpcd|ea126ed2f1b11622547239f331b8013320c59ad2
vendor/etc/init/vendor.qti.cdsprpc-service.rc|36772b70216796e8ef19376d9c6a81ee9ffff549
vendor/lib/libcdsp_default_listener.so|6a3f97faf26da3d01f7895d37c09c8bc62030e0a
vendor/lib/libcdsprpc.so|723e75558cf307eae1c3a0cda94da0944644a030
vendor/lib64/libcdsp_default_listener.so|81e5f4737bfb7e2f0a906183b2a8357a5053ee5c
vendor/lib64/libcdsprpc.so|9f1948f776cbd9a10762e8d6740982adbeb102ee

# Charger - from LA.UM.9.1.r1-10900-SMxxx0.0
vendor/bin/hvdcp_opti|3e416c2b7af08c1120156b1c8ccb849d96678021
vendor/bin/init.qti.chg_policy.sh|9b91792b4f09259747196afd652ac8d5a4a0dd6b
vendor/etc/charger_fstab.qti|8464c139d93f05e86ff9c9d31b3e8617b8d9476e
vendor/etc/init/vendor.qti.hardware.charger_monitor@1.0-service.rc|29b23be4f604282abf715f86aec9697175a9aaad

# CNE (system) - from LA.QSSI.12.0.r1-05600-qssi.0
system_ext/framework/com.quicinc.cne.api-V1.1-java.jar|ed72cda387e7b589b5f18a74de1bc5ef422dcde4
system_ext/framework/com.quicinc.cne.constants-V1.0-java.jar|25dafc9f6074f9ecf482a2aa07b87c2671138110
system_ext/framework/com.quicinc.cne.constants-V2.0-java.jar|be7c8fc9077e7c7ae64636bd3504f707213f4c8b
system_ext/framework/com.quicinc.cne.constants-V2.1-java.jar|37f2ab458b20618455e671cfd2a9ec158bf9f561
system_ext/framework/vendor.qti.hardware.data.cne.internal.api-V1.0-java.jar|47580c4941c082a5e1611cf63a6a2d0f4be3c1a7
system_ext/framework/vendor.qti.hardware.data.cne.internal.constants-V1.0-java.jar|1d4db1471d9c6c257e1e9cd289f32125d60d59b9
system_ext/framework/vendor.qti.hardware.data.connection-V1.0-java.jar|3e5daaf89e148bb13b4612061774afe3e2f67e0c
system_ext/framework/vendor.qti.hardware.data.connection-V1.1-java.jar|8487caa551e08ce8b3cfeb96c05b965d32b2db71
system_ext/framework/vendor.qti.hardware.data.dynamicdds-V1.0-java.jar|9d7f91c67f2fb51a35645f96aa98e24665947f58
system_ext/framework/vendor.qti.hardware.data.iwlan-V1.0-java.jar|553dd6e8dc4b95cb7704e1bd415f72d66632655a
system_ext/framework/vendor.qti.hardware.data.qmi-V1.0-java.jar|4b1f2162233adedc7c491c866f3fd5ce13ace49c
-system_ext/lib64/com.quicinc.cne.api@1.0.so|684ec3f36a4d0238e68efe339126545304b7eeff
-system_ext/lib64/com.quicinc.cne.api@1.1.so|92a7dba9a54ab209cc30f80b4d3b5b002534fc2e
-system_ext/lib64/com.quicinc.cne.constants@1.0.so|11156088eab8eee6116e8849538ebf782563cafc
-system_ext/lib64/com.quicinc.cne.constants@2.0.so|ceb4db415e92c8fcb5e2b0e7301b4453c41ed583
-system_ext/lib64/com.quicinc.cne.constants@2.1.so|506e975e88003c483ab0ab39099bc2e7d7ea3112
system_ext/lib64/vendor.qti.hardware.data.cne.internal.api@1.0.so|3883d1632c1ca6341ed12810e49c03ce54b56f16
system_ext/lib64/vendor.qti.hardware.data.cne.internal.constants@1.0.so|7518bc73394f8194e92a0028ad13712f8987d12d
system_ext/lib64/vendor.qti.hardware.data.cne.internal.server@1.0.so|59a27cae5b460ae4f4c9a8e029ec3e0e4abe42f0
system_ext/lib64/vendor.qti.hardware.data.connection@1.0.so|af4f3329d92d8108818ef4c8b51a22fba8ded297
system_ext/lib64/vendor.qti.hardware.data.connection@1.1.so|486873bc92a284887e9f99ac8cce7e67b9e2d833
system_ext/lib64/vendor.qti.hardware.data.dynamicdds@1.0.so|8e008e862faad31e3c51f20923addb0ae9b95a55
system_ext/lib64/vendor.qti.hardware.data.iwlan@1.0.so|e8ee94d82589db876d65b120f0f2b3533ed56dc0
system_ext/lib64/vendor.qti.hardware.data.qmi@1.0.so|f9a1c9598ff9fc0b3deb1a3718026aeb5af6b599

# CNE (vendor) - from LA.UM.9.1.r1-10900-SMxxx0.0
vendor/app/CneApp/CneApp.apk|6e355ca21e53c8a84794f06e1057e62ff2df1a58
vendor/app/IWlanService/IWlanService.apk|08472592f4a21ad806c487fc0c70c10bbe7c7ac2
vendor/bin/cnd|e8b86560521664c15c5b6e7dd84e72f926a7f3e4
vendor/etc/cne/wqeclient/ATT/ATT_profile1.xml|578f3f8f56059bfdbef926bcc68d01c15e06951f
vendor/etc/cne/wqeclient/ATT/ATT_profile2.xml|1fb42c672a12b6660bdce3ea94e0c43719dd9de8
vendor/etc/cne/wqeclient/ATT/ATT_profile3.xml|f88e13f1dd7b82388c90358f71813026370c9ed8
vendor/etc/cne/wqeclient/ATT/ATT_profile4.xml|fb08e04f57797c5684bf734f7ce4bb4968859b18
vendor/etc/cne/wqeclient/ATT/ATT_profile5.xml|eb726ad1a42b9b78b9ee3b821fc108611bc9eeac
vendor/etc/cne/wqeclient/ATT/ATT_profile6.xml|be97b46b0d07ee2f6ebcc677d8099ed2140d5d85
vendor/etc/cne/wqeclient/ROW/ROW_profile15.xml|0130dfd8326ee710bf4e15718ede87c49a85b763
vendor/etc/cne/wqeclient/ROW/ROW_profile16.xml|e05b935d7ccf48d306b71c719b2e4df83187d9c0
vendor/etc/cne/wqeclient/ROW/ROW_profile17.xml|f1b33204799268eda78dd8314f26abf2e37431e2
vendor/etc/cne/wqeclient/ROW/ROW_profile18.xml|19db16f62dabb806a62f192858a9d52b5bc2a064
vendor/etc/cne/wqeclient/ROW/ROW_profile19.xml|1fcc57b1fa4dbbc7d250e8dd92acf1527d447eb3
vendor/etc/cne/wqeclient/ROW/ROW_profile1.xml|e7ca213d0998cb3a6a603ad3eca7bda69830ff55
vendor/etc/cne/wqeclient/ROW/ROW_profile20.xml|7be0614cf0116c39b736c58fe5eca36838aeb3db
vendor/etc/cne/wqeclient/ROW/ROW_profile21.xml|cc62517e6c37e12ee1ebebbb27f9c22878749be3
vendor/etc/cne/wqeclient/ROW/ROW_profile2.xml|169a5209000e357a1a3183e8e5bfdf6fd07c2787
vendor/etc/cne/wqeclient/ROW/ROW_profile32.xml|b87542b9284efe4c2bd0ae868bb9a765c2c3dbc5
vendor/etc/cne/wqeclient/ROW/ROW_profile3.xml|4be4060e8ac2d9fcea490feec7938cadcff46e1f
vendor/etc/cne/wqeclient/ROW/ROW_profile4.xml|f88e13f1dd7b82388c90358f71813026370c9ed8
vendor/etc/cne/wqeclient/ROW/ROW_profile5.xml|96101f6b01436a02572c67a469ff67ccfb738874
vendor/etc/cne/wqeclient/ROW/ROW_profile6.xml|cef14ff8a160c7ad719b85d024a4b3301c3638d0
vendor/etc/cne/wqeclient/ROW/ROW_profile7.xml|8d6773a4c418d0dcc4dc9096017d2681c7a1defe
vendor/etc/cne/wqeclient/VZW/VZW_profile1.xml|c89d3c062790b442cbe941cafc641a4e322f2d59
vendor/etc/cne/wqeclient/VZW/VZW_profile2.xml|ba14a9df975cf872ed0cbe28bee8fac63cd848d4
vendor/etc/cne/wqeclient/VZW/VZW_profile3.xml|9b123d81c9b8991499cda33b0706810e0c8fb974
vendor/etc/cne/wqeclient/VZW/VZW_profile4.xml|ff91feb5060a6df07e3e4d9bc99ae58bccad7649
vendor/etc/cne/wqeclient/VZW/VZW_profile5.xml|f76c894f3c6d5b6ed35113a088dc3174c900501b
vendor/etc/cne/wqeclient/VZW/VZW_profile6.xml|14d136e7fcc682311757d3edc0b9d3eaeba11815
vendor/etc/init/cnd.rc|3a5183df3479500fb729493bc56c71166fc10bce
vendor/lib64/libcne.so|a1e277726e84d99388258ca263820764ff007e42
vendor/lib64/libcneapiclient.so|b6479678e5b0e8b46d8df5eb8bd610aa17be00d0
vendor/lib64/libcneoplookup.so|55ffdfcaae2caf2dbe6473c93476bc4bdb62b580
vendor/lib64/libcneqmiutils.so|d2cccd68a0b8ae6e438f1e62986675e0819ed2bf
vendor/lib64/libwms.so|3231ffc3b9ba8d7ae6caaaeaa4a4056224e4e237
vendor/lib64/libwqe.so|f87c95c95fa680036e4158540a5e027835551c5a
vendor/lib64/libxml.so|f9b20632e9fd324810caf865faea93e4ff505d91
vendor/lib64/vendor.qti.data.factory@2.0.so|748bfbaa57a409b8962e2b1725e1415e423a7315
vendor/lib64/vendor.qti.data.factory@2.1.so|bb1f3fa22563282ee24bf03ca681fdc45551feef
vendor/lib64/vendor.qti.data.factory@2.2.so|6951ff98d20902678e8af584c7b4cf89e360f31b
vendor/lib64/vendor.qti.data.factory@2.3.so|e9992039c400ef5fb57db62e108873a219348b4c
vendor/lib64/vendor.qti.data.mwqem@1.0.so|2d77720b2a686490290a01c69426bfa9b667df98
vendor/lib64/vendor.qti.data.slm@1.0.so|df789eb70ca4a42db9cd9a53f1c4fcb4e06d79f9
vendor/lib64/vendor.qti.hardware.data.cne.internal.api@1.0.so|e4d002e61b2d6a4d3826e0563ee16cac74696833
vendor/lib64/vendor.qti.hardware.data.cne.internal.constants@1.0.so|f87a303f7a092c4d18b7db91d5162a777c920817
vendor/lib64/vendor.qti.hardware.data.cne.internal.server@1.0.so|7d80cd3bda9fd34dd1629116124579e5a4a787f5
vendor/lib64/vendor.qti.hardware.data.connection@1.0.so|3945a40d7926fb747bfcc11adcdef914e83b1e2b
vendor/lib64/vendor.qti.hardware.data.connection@1.1.so|9b7a507c2433ad4a9bdc2d05ef8f3b7d8dedbfbf
vendor/lib64/vendor.qti.hardware.data.dynamicdds@1.0.so|005408090570f23bb420640a0cb7b964ca8ce123
vendor/lib64/vendor.qti.hardware.data.iwlan@1.0.so|2d56c746004859ee43a51d8e00e405ac302c4142
vendor/lib64/vendor.qti.hardware.data.latency@1.0.so|0eee3c82c61873e24b28cb976dd4a88e2bdbcbb8
vendor/lib64/vendor.qti.hardware.data.lce@1.0.so|4a7fd8b2c09b97e551dd763adfa560a7ed4797bb
vendor/lib64/vendor.qti.hardware.data.qmi@1.0.so|851db5940d5e9e4330e16221be114aef14f52325
vendor/lib64/vendor.qti.hardware.mwqemadapter@1.0.so|c041dbfc99643e791e52c4e7f3a87050a8cd6c93
vendor/lib64/vendor.qti.hardware.slmadapter@1.0.so|000e0d2ac4450c0ad8baca06985bc9065e119f1e
vendor/lib64/vendor.qti.latency@2.0.so|cd9d3705780540323a235af4e3d8bee5c7eb3f63
vendor/lib64/vendor.qti.latency@2.1.so|2fe737701600872e926842f3efcc5d1f21e3d73e

# ConfigStore - from LA.UM.9.1.r1-10900-SMxxx0.0
vendor/bin/hw/vendor.qti.hardware.capabilityconfigstore@1.0-service|645da35014e8fa91ac3880ac0d8db2a3c7f7020b
vendor/etc/init/vendor.qti.hardware.capabilityconfigstore@1.0-service.rc|4ede0250585a44b01d351bbc301d7a13cc3d783d
vendor/lib64/hw/vendor.qti.hardware.capabilityconfigstore@1.0-impl.so|e70fda0288c646d0daf0ed0eef2f21855dd8d024
vendor/lib/hw/vendor.qti.hardware.capabilityconfigstore@1.0-impl.so|4bd1bd6f52807b2e32e641dc32e7ad7994424520

# Consumer IR
vendor/lib64/hw/consumerir.default.so:vendor/lib64/hw/consumerir.sm6150.so

# Display - from LA.UM.9.1.r1-11400.02-SMxxx0.QSSI12.0
vendor/lib64/libdisp-aba.so|44993853ff9d4340e856e6f53d802f10372442d3
vendor/lib64/libdisplayqos.so|5548732c916e629f18f45ce257ce843b679a136a
vendor/lib64/libhdr_tm.so|b4d129efafedbc82e122ef7edff26ca65204b630
vendor/lib64/libqseed3.so|7f2a659fb9acd84d79c11dbd6901b816d5d1214f
vendor/lib64/libsdedrm.so|bccd71afeb56529b457699bdd179d571830caa16
vendor/lib64/libsdm-color.so|d0984c33dcbf84940676917e0c3584b0ccfeaf03
vendor/lib64/libsdm-colormgr-algo.so|15f696a4575868e528360896f1e0098d531899c0
vendor/lib64/libsdm-diag.so|341907510d377127adb98d07e7d9f30448d08def
vendor/lib64/libsdm-disp-vndapis.so|60da199073d2b0881bf075190a644b332503f39c
vendor/lib64/libsdmextension.so|e10d29f29b7a53b75369e58e8a165b2b86609f26
vendor/lib64/libtinyxml2_1.so|ff32deb110acb02cb5def5f3404f9064c1276483

# DPM (system) - from LA.QSSI.12.0.r1-05600-qssi.0
system_ext/bin/dpmd|b11102e06c7e169b3da762a0db408cb8e16d7b01
system_ext/etc/dpm/dpm.conf|95e27da8c989e96c6faea6f0697bce11955b62a5
system_ext/etc/init/dpmd.rc|738b638ff04cda368e22c03e16baf90ba157a6fc
system_ext/etc/permissions/com.qti.dpmframework.xml|c4b7ad0879d00c1eba4f3fe3a88ddb8aa153629a
system_ext/etc/permissions/dpmapi.xml|255903759a60a31c0876ec004e74554c753270fe
system_ext/framework/com.qti.dpmframework.jar|065a1864f817cda3dc59a96c3f62b0f1df517129
system_ext/framework/dpmapi.jar|005e8092687849615ce119b5d6c188f08e397d79
system_ext/lib64/com.qualcomm.qti.dpm.api@1.0.so|10563c1f60c2e7cb80729c30dc131114e63ef2f3
system_ext/lib64/libdiag_system.so|a497f785cf27e8dc305635575dbf080187efc859
system_ext/lib64/vendor.qti.diaghal@1.0.so|0158bec299e6bef47604a946145ab321184b2c24
system_ext/lib64/libdpmctmgr.so|5351d3a64687a8066ff972394e495ed6255caa44
system_ext/lib64/libdpmfdmgr.so|3b7c5a6c652948fa86790478d4fcbd0df3172947
system_ext/lib64/libdpmframework.so|3e2d68ddd6f944b44368be4190bc3c8f3d73fe6c
system_ext/lib64/libdpmtcm.so|ac8bb063de43870f67e2aba15eee5baaa9864c84
system_ext/priv-app/dpmserviceapp/dpmserviceapp.apk|b0a7277460037b74be6023e7a4197584d792c1dc

# DPM (vendor) - from LA.UM.9.1.r1-10900-SMxxx0.0
vendor/bin/dpmQmiMgr|61a421804559b0e461439c19088acc01b871982a
vendor/etc/init/dpmQmiMgr.rc|1538743661a5c48c15cd105beaad20f72953885a
vendor/lib64/com.qualcomm.qti.dpm.api@1.0.so|d9f1aa7f93b928f42499d613d20ccbc60f279097
vendor/lib64/libdpmqmihal.so|41eb89e66ba065c43a5eb79cd3c72cef0ee167aa

# DRM - from davinci-user 11 RKQ1.200826.002 21.6.11 release-keys
vendor/bin/qseecomd|41d31b001430c9e707eb4fdec5f409468b9183b9
vendor/etc/gpfspath_oem_config.xml|7aeade35b0bbe27530f6aca8c1ed5192a7acf59d
vendor/etc/init/qseecomd.rc|3e596c60490756388a5bd56378a91d0db7c3779b
vendor/lib64/libGPreqcancel.so|7e47b162a5baa4570a8f53f4d4451fd57c391210
vendor/lib64/libGPreqcancel_svc.so|681cb055cb5affa81fbc8e3233813a1cb0142450
vendor/lib64/libQSEEComAPI.so|a739303816492c261f6e8525d0957ff37a9b01ea
vendor/lib64/libSecureUILib.so|b6abc2e45064c1e7616b54ecddb063b9e7156017
vendor/lib64/libStDrvInt.so|095780183be2789198974e1bbe833ccd1b5f33dc
vendor/lib64/libdrmfs.so|66e4465427ca61c7ff1479cf0f0465290311e44d
vendor/lib64/libdrmtime.so|103663a8597106a8fd90838b94194ff8c08223d2
vendor/lib64/libqisl.so|4a2f72346c7f4b3368b88582da7cc7487a3be5ce
vendor/lib64/librpmb.so|60a8b54660e885bc8fa51a1e593ba5f491f5f71b
vendor/lib64/libsecureui.so|fd2de1ccefcdacf6e8c1c2fa6319cea692b03ba2
vendor/lib64/libsecureui_svcsock.so|0d17798788c8fc7e48a18ed04ec0215247fcb2cf
vendor/lib64/libsi.so|a5870b031fb37a75a88c543715c0fc8f7a6f664a
vendor/lib64/libssd.so|a00caa9a0bdf44bafbb18856a7ef3f54014e3941
vendor/lib/libQSEEComAPI.so|dd3196f6739f1014b25a89fada46926d7818d7b4
vendor/lib/libcpion.so|9149b9bf44d5b6fbada1a8340c87942861dd0b84
vendor/lib/libdrmfs.so|0e3f6b49491fea4967435176b5e1227692c49612

# DRM - Widevine - from davinci-user 11 RKQ1.200826.002 21.6.11 release-keys
vendor/bin/hw/android.hardware.drm@1.3-service.widevine|07ac13a602f25788e54c1500c2957f561dd9f90a
vendor/etc/init/android.hardware.drm@1.3-service.widevine.rc|c35e1a6f9a6faff19064a81e07c4be82ceaf4bb5
-vendor/etc/vintf/manifest/manifest_android.hardware.drm@1.3-service.widevine.xml|ebebcf8f367641480cf7d512fc06e6ab777527be
vendor/lib64/libbase64.so|7affa7459f91bec1a7f5aeab83c0cc6349354853
vendor/lib64/libcpion.so|103e6756e87912b34d910d424f2658580fea025c
vendor/lib64/librmp.so|2e84f3e665bbce083aefb5eaf9fcc4fbcd17ec31
vendor/lib64/mediadrm/libwvdrmengine.so|9f38ba4fba439e9ecdb7b3a7f89d878825ae3529
vendor/lib/libbase64.so|73d04f085db31cf16cd24be608f503b9d6ace1e1
vendor/lib/libcppf.so|70d5c828d409ea0580d087cca937ae956715c821
vendor/lib/librmp.so|329fdbba89b4cf2633809bd2b350aade192fb56e
vendor/lib/mediadrm/libwvdrmengine.so|012a554cd7e1d593e90e55d6bad257808d6ee04d

# DRM - HDCP - from davinci-user 11 RKQ1.200826.002 21.6.11 release-keys
vendor/lib64/libhdcp1prov.so|169f26e0715e0828dbeb1eac064a2d76e7f4e99b
vendor/lib64/libhdcp2p2prov.so|4ab4cd72006f510087d31c1e66d2c76bba834931
vendor/lib64/libhdcpsrm.so|b8a39941e5071790c31435fe1a0d03030c63fd78
vendor/lib64/libmm-hdcpmgr.so|e6952d39c6f36ef73d5dc0dd348fa3c5e2f3bc1c
vendor/lib/libhdcp1prov.so|60587bccb6b9625d15307ec9d7fd5549d59c7823
vendor/lib/libhdcp2p2prov.so|a0e026f8ea99606ff4f2351ff8000cf0a370e56d
vendor/lib/libhdcpsrm.so|afb20dc97aa11e51d97ee3e9717e842d689a4899
vendor/lib/libmm-hdcpmgr.so|4ade7e2db5f28b10cd01810ed8c81ab4f54defb7

# DRM - Widevine -L1 - from DAVINCIGLOBAL
vendor/lib64/liboemcrypto.so|2cee717b25559030a61709e826b4a5dae6043c20
vendor/lib/liboemcrypto.so|b349d1d049709bbdff15a133698264dc8c01db14
vendor/lib64/libwvhidl.so|2abdbc8966795ed903062ec1a8ba2e79bb5883f8
vendor/lib/libwvhidl.so|dd599b1055d1faf025d60bc4f702f9ae11123c30

# DSP HAL Service - from LA.UM.9.1.r1-10900-SMxxx0.0
vendor/bin/dspservice|a7344fc3d27a49df30858ebc3f73ee5818e752d4
vendor/etc/init/vendor.qti.hardware.dsp@1.0-service.rc|fbf2bb38ca6bdddf98c7123da9e1f263a4eec55f
vendor/etc/seccomp_policy/vendor.qti.hardware.dsp.policy|f060101b26d3674bb173e5fc95e118f56a8ac15d
vendor/lib64/vendor.qti.hardware.dsp@1.0.so|0af387d416acf6d697b9edd4090e3a6941696970

# Fingerprint
vendor/lib/vendor.qti.hardware.fingerprint@1.0.so
vendor/lib64/hw/fingerprint.fpc.default.so
vendor/lib64/hw/fingerprint.goodix.default.so
vendor/lib64/com.fingerprints.extension@2.0.so
vendor/lib64/libgf_ca.so
vendor/lib64/libgf_hal.so
vendor/lib64/libgoodixhwfingerprint.so
vendor/lib64/libvendor.goodix.hardware.interfaces.biometrics.fingerprint@2.1.so
vendor/lib64/vendor.qti.hardware.fingerprint@1.0.so

# Fingerprint Firmware
vendor/firmware/goodixfp.b00
vendor/firmware/goodixfp.b01
vendor/firmware/goodixfp.b02
vendor/firmware/goodixfp.b03
vendor/firmware/goodixfp.b04

# FM - from LA.UM.9.1.r1-10900-SMxxx0.0
system_ext/lib64/fm_helium.so|0d810fb4f094daf6f399a3d13f379a13114b21a6
system_ext/lib64/libfm-hci.so|66ccf3fc817cf744871ea4178702359bb8babbd5
vendor/lib64/hw/vendor.qti.hardware.fm@1.0-impl.so|5c938c9eb6060bfeac1752b4e6d07101bb2430df

# Gatekeeper - from LA.UM.9.1.r1-10900-SMxxx0.0
vendor/bin/hw/android.hardware.gatekeeper@1.0-service-qti|2e33e885b92e413440511049025497945d6b8484
vendor/etc/init/android.hardware.gatekeeper@1.0-service-qti.rc|1b8d5f58fe0a57906acf72b862c16a2521daa97b
vendor/lib64/hw/android.hardware.gatekeeper@1.0-impl-qti.so|14819df15693c737fb2a51bf89fe826200286006

# GPS - from davinci-user 11 RKQ1.200826.002 21.6.11 release-keys
vendor/bin/garden_app|4d5d58b8d8ecbb82db31b6e7f26f9fb749f9393b
vendor/bin/loc_launcher|515038f060e83db862cca5cc8b79a3eb07d689f4
vendor/bin/lowi-server|61f082d6584e15d83f7172c0d861259e261f5877
vendor/bin/slim_daemon|6c40c71d279a457c41ef7c735bacc6fb7bd25ec0
vendor/bin/xtra-daemon|6ab4336b0ecc47499be4312f3ab7c7bc09281511
vendor/etc/cacert_location.pem|0789bf799c7e45d352a83e2f79ddb0cea86db85b
-vendor/etc/vintf/manifest/vendor.qti.gnss@4.0-service.xml|6514b13f55abc0acc28e004c35ff93fb972d61a9
vendor/etc/xtra_root_cert.pem|f55a31ec4d9cf8ce2724acadecf00c779f8767db
vendor/lib64/hw/vendor.qti.gnss@4.0-impl.so|bcd4b8909d951efd03013b76aa0615984d007db9
vendor/lib64/libaoa.so|b21d46940eaa9873d423bbfe41eafd570a6fabc2
vendor/lib64/libcacertclient.so|1d07e004c6660fcd7004deacb446c5e9fe67ce72
vendor/lib64/libcdfw.so|140ed3d10b68609ddc0ff75021a3b30508e1c6f5
vendor/lib64/libcdfw_remote_api.so|8278ba42253fe2217fb87fe651fc4e1d21f1f85c
vendor/lib64/libdataitems.so|06bb96e1cfcfd75a9b061ba1f4a7be91a19d6a7e
vendor/lib64/libgarden.so|f2c1c30c840f063f828791bd3462e2ea8ffd1eb7
vendor/lib64/libgarden_haltests_e2e.so|35071942c30e95722a6d230fee70ed23ebc7108b
vendor/lib64/libgdtap.so|f7ea2035c862fb385d37b224b419aeef4338883e
vendor/lib64/libgnsspps.so|77c9625bf121b1c35cfc679446336b38900fb8ac
vendor/lib64/libizat_client_api.so|b2635e24e150539dd968f16fea104c9d0ca29720
vendor/lib64/libizat_core.so|640071d0d085ed6cd7ad3ad285ddf57d7a6e4768
vendor/lib64/liblbs_core.so|e456c2a265625ea28bc19b1537b4c729d203ff04
vendor/lib64/libloc_api_v02.so|7695c183fac55a0979c881f37126a0f9c885a09c
vendor/lib64/libloc_socket.so|15af11af0927edf74be83841d648663873d31694
vendor/lib64/liblocationservice.so|44b629d520c18aa2ca35f7f8be988bf1c084e9aa
vendor/lib64/liblocationservice_glue.so|d42ee5dd7687abeae596f2621e63fe8540cd0ea4
vendor/lib64/liblowi_client.so|2111e9d2391ce031c2bf99974cb1d3231b6f76a8
vendor/lib64/liblowi_wifihal.so|5b7915336b9d21573c78976ff0f7fae4f7088468
vendor/lib64/libqcc_file_agent.so|a05fbdf0156cb4fc77a4b659be42cc8e146f45ce
vendor/lib64/libmmosal.so|85745ad4fc147830e595fce1985b2079566888da
vendor/lib64/libslimclient.so|35890b156bfcdaf4d605da8a77ecc6b60783d3f4
vendor/lib64/libxtadapter.so|46f5a95f8effb8c21acf4044a0c792781271125f
vendor/lib64/vendor.qti.gnss@1.0.so|3dda1522caf6d732c4bebd2985f02baa51b20a93
vendor/lib64/vendor.qti.gnss@1.1.so|cdca8d04c6dc1c007880995a96d9aeb22f96b3b3
vendor/lib64/vendor.qti.gnss@1.2.so|66530d6c3da8a7155b82fa140e5d4d5c5e5600fd
vendor/lib64/vendor.qti.gnss@2.0.so|81949971ef69e6d25850606a8468efbe8a76bf18
vendor/lib64/vendor.qti.gnss@2.1.so|e37a7735035bddbfd5a0a4c53c781dc444ff12eb
vendor/lib64/vendor.qti.gnss@3.0.so|e5434e37a18bb48ae860399b848a20745783714b
vendor/lib64/vendor.qti.gnss@4.0-service.so|f97eea8b119fcaa62bb601c324977ef82806503d
vendor/lib64/vendor.qti.gnss@4.0.so|58881d09d13c82b795fa99bfd485c17c9075598d
vendor/lib64/vendor.qti.hardware.cacert@1.0.so|8b0fafcfc9c5aa000466c338ec4e92bb4f7d99a7
vendor/lib64/vendor.qti.hardware.qccsyshal@1.0.so|937760a15e0832ced4deb142c479d34ca6a316f4

# GPU Firmware
vendor/firmware/a612_rgmu.bin
vendor/firmware/a612_zap.b00
vendor/firmware/a612_zap.b01
vendor/firmware/a612_zap.b02
vendor/firmware/a612_zap.elf
vendor/firmware/a612_zap.mdt

# GPU Firmware - from LA.UM.9.1.r1-10900-SMxxx0.0
vendor/firmware/a615_zap.b00|1f966d9754aa6b971d39f5b3d9637480e67aa3fe
vendor/firmware/a615_zap.b01|a47af59871339008d2da206ad674ed049efa83a4
vendor/firmware/a615_zap.b02|4ae54047f9629f2470a5d58f3940c5eb51298b96
vendor/firmware/a615_zap.elf|4c6d34d4b6f93664b4923fac8091ddc80e99ba87
vendor/firmware/a615_zap.mdt|38c9ea0ff96485cfaabaf96246d6b0f5985e3ea6
vendor/firmware/a630_sqe.fw|6526cbb24d614dd67dc18e3c80d5c4374a0b3f63

# Graphics (Adreno) - from LA.UM.9.1.r1-11400.02-SMxxx0.QSSI12.0
vendor/lib64/egl/eglSubDriverAndroid.so|3f24763a497338de1979a7fcaee3659505efd838
vendor/lib64/egl/libEGL_adreno.so|bc3f435342068f4164a9c54dfb5ac8644f488268
vendor/lib64/egl/libGLESv1_CM_adreno.so|0a2a648ca2dcd887ea62860bbfa2ef397f01d42d
vendor/lib64/egl/libGLESv2_adreno.so|0d3730409f10f0c222412868191f46d0901f8d36
vendor/lib64/egl/libq3dtools_adreno.so|189b9c3d400c6a98c87582b8df0910530cba6d44
vendor/lib64/egl/libq3dtools_esx.so|699abe4ff4c6e68c354ac451aefeb7389142e54d
vendor/lib64/libC2D2.so|175115cc36fd471f9eb83af76be21b5f602b9460
vendor/lib64/libCB.so|9a956102a6c306f465d7e72d2e3c9978d271e3c3
vendor/lib64/libOpenCL.so|5aecd08fbf5470c2ff467f2e54fb513c592d6272
vendor/lib64/libVkLayer_q3dtools.so|3f24de3d0ceacb4b99320de1c98fca528a43262a
vendor/lib64/libadreno_app_profiles.so|c2a34a8e350fc78e25762716a77e636a05c3b6e8
vendor/lib64/libadreno_utils.so|1e5a9490dc4b711685a0e8c6028a828eb347eeab
vendor/lib64/libc2d30_bltlib.so|adbd12db0fbd7c840b75af49df450833afd9be58
vendor/lib64/libgpudataproducer.so|e727bebda2f8360f6269272546431c990406b298
vendor/lib64/libgsl.so|dac78bbe8d5dce2ab90d260c3c3d205151a958aa
vendor/lib64/libllvm-glnext.so|1662a4a3abab3599208cc116135f8698e0c525da
vendor/lib64/libllvm-qcom.so|6c19eabb6f1ed256bcc07cfd8596c48b968d4e68
vendor/lib64/libpvr.so|0d293cfcac615cfadd41aeeba36a336869e51edc
vendor/lib/egl/eglSubDriverAndroid.so|586b486a73668e0f8017a66032e4af7204efb851
vendor/lib/egl/libEGL_adreno.so|1d06e312354df4013d940774453105085b60ca8c
vendor/lib/egl/libGLESv1_CM_adreno.so|715f3463528f1e74ffa02627ee5916a09e0748f5
vendor/lib/egl/libGLESv2_adreno.so|807030b02dcf4a044bb5fb7c1cce4b118abf3266
vendor/lib/egl/libq3dtools_adreno.so|9ec9c053592e58be935e8ae5e0a9d362c101773a
vendor/lib/egl/libq3dtools_esx.so|600732ce2093ef23a81c1c66497d2315696ebc89
vendor/lib/libC2D2.so|91f015cad79024fdbb6a5603cce48693e58a4510
vendor/lib/libCB.so|a6800ec72cee54e253177a88eb05653a32d22153
vendor/lib/libOpenCL.so|7e06bf784e1c4e1b89dbe811b038efcc7c1221a0
vendor/lib/libVkLayer_q3dtools.so|446311934c812e335235627da33f6e6871d4f140
vendor/lib/libadreno_app_profiles.so|71be829f62c56c7680a68bc5938a94981e02e3a5
vendor/lib/libadreno_utils.so|72dbf43a34e1a1cb2a821d44a564ff007c9f2509
vendor/lib/libc2d30_bltlib.so|9977576a557bef02de296e742a4eeecc711fad9c
vendor/lib/libgpudataproducer.so|ae6b33941cf3404911c84ca9027badf397e563d7
vendor/lib/libgsl.so|79260d753fc6130d449ca706efc74688b26bfefc
vendor/lib/libllvm-glnext.so|e2cc7963050bbb21782b47b42cfe23f54d848afc
vendor/lib/libllvm-qcom.so|a22ead3b1d98004d378e44bded4bb341fe009ba7
vendor/lib/libpvr.so|82723b3ea51940ae0d07206db949f7c98af7b7da

# Graphics (Vulkan) - from LA.UM.9.1.r1-11400.02-SMxxx0.QSSI12.0
vendor/lib64/hw/vulkan.adreno.so|8a4573fdb8dea4907c845741e8dbd2efc9094c94
vendor/lib/hw/vulkan.adreno.so|e592c2ba93a78c9ad0765a81a66cffef25145125

# IPA Firmware
vendor/firmware/ipa_fws.b00
vendor/firmware/ipa_fws.b01
vendor/firmware/ipa_fws.b02
vendor/firmware/ipa_fws.b03
vendor/firmware/ipa_fws.b04
vendor/firmware/ipa_fws.elf
vendor/firmware/ipa_fws.mdt

# Keystore - from LA.UM.9.1.r1-10900-SMxxx0.0
vendor/bin/hw/android.hardware.keymaster@4.0-service-qti|786244acf8752dfe4282987f4dd6b29a4c9a6527
vendor/etc/init/android.hardware.keymaster@4.0-service-qti.rc|c8999fb1bccbef81e6b362059e9a6ebd023de98f
vendor/lib64/libkeymasterdeviceutils.so|6fd0b0e1b30c4e6c5272794896306596880c657b
vendor/lib64/libkeymasterprovision.so|425996418aeceff1adf84fe16722eab3ca487ac1
vendor/lib64/libkeymasterutils.so|7e42e00998259abfeaf6bca3ec82d37f54dd9ff9
vendor/lib64/libqcbor.so|7da5294a577f5a71ede5b3804a026bf69bd025ee
vendor/lib64/libqtikeymaster4.so|327715d70e914e5c4eae2fbee039e24bb81d9157

# Listen - from LA.UM.9.1.r1-10900-SMxxx0.0
vendor/lib/libadpcmdec.so|297d8fecff85b6dc67ff19e788bcf3f1286014a0
vendor/lib/libgcs-calwrapper.so|7252aa60ff6d0f457b01500201ae62505001b458
vendor/lib/libgcs-ipc.so|c08cf037dd080321b58fa96128fe419d8f26fb15
vendor/lib/libgcs-osal.so|05738a19c7e9a406ca6ffad597a7dd366ed0c5bc
vendor/lib/libgcs.so|4770f7e7eb730aa6051f1678a4421e8aeb2807c5
vendor/lib/liblistensoundmodel2.so|8f2ca54b3760a48fb6c2ee6eae25edbc0d0e2db0
vendor/lib/librice.so|30f281ca3307bee5072c7b1eeea743b466af95ac
vendor/lib/libsmwrapper.so|6c54b63ef92319b660854065623f30e8b94d3444

# Media - from LA.UM.9.1.r1-10900-SMxxx0.0
system_ext/lib/libmmosal.so|e29bdf82903e2293dc3ee74a2b9d69a7f1df25dc
system_ext/lib/libmmparser_lite.so|3db1025b8eed0b326110ba69b0fca5d8739e70f3
system_ext/lib/libmmrtpdecoder.so|0b41da1c84e4a5abc01b4dba18a121f73ad0c409
system_ext/lib/libmmrtpencoder.so|a14a07eefd96889a7287640341d9fff0a7a4bb11
system_ext/lib64/libmmosal.so|bf992fb3f6394d0da09279aa496e44e10a149264
system_ext/lib64/libmmparser_lite.so|8eaf90235d3cd5dc9cdfcd2bb4c85ce4629bf90e
system_ext/lib64/libmmrtpdecoder.so|b357af14455971d9f126a109d0214b63661dba40
system_ext/lib64/libmmrtpencoder.so|31bdf1aeb6f5c183fc9fb2e63acc3a42f79759fb
vendor/lib/libmmosal.so|37febc914b2c706a5df0009cc134e9d80690aec0
vendor/lib/libFileMux_proprietary.so|1e125137fcc2c1843cc14e3ec34fc1068fc6bc14
vendor/lib/libmmrtpdecoder_proprietary.so|227a26b9ec9ee6f2dc95de47b713b215e8b6c93e
vendor/lib/libmmrtpencoder_proprietary.so|d0aec32b8e565912ecc475bad40ed626ac1ee04d
vendor/etc/configstore/vpp.configstore.xml|ed961545186c66fd9523f25866c74f2e11ee63d7
vendor/etc/init/vppservice.rc|24c089e0e413cbb3fa6daaf0af4215870bdf1b8e
vendor/lib64/libAlacSwDec.so|bfd2eb75d733c99d7c0b46f3016834f6f3ebcbdc
vendor/lib64/libApeSwDec.so|96b957bd6d993737483d9d8705229b406d616ec7
vendor/lib64/libFlacSwDec.so|720f8497fcbc3d98aa8ff333ed55ca575eb08815
vendor/lib64/libI420colorconvert.so|0e7d5d65d1401fa491ed578e4ca6d9e56a2b249a
vendor/lib64/libmm-color-convertor.so|8aac378d264e7cf9e3a7e97bba81ffbed3e3bd3e
-vendor/lib64/libMpeg4SwEncoder.so|9197ade83f762c2dc955954141be23d53a1bc2e2
vendor/lib64/libOmxAacDec.so|0851c0efaf67f663c4b9e3d9bb97e21b243f6d6e
vendor/lib64/libOmxAlacDec.so|354e3c014df9fb8835281aaf7e418ebabff196fa
vendor/lib64/libOmxAlacDecSw.so|3f9543ac1b98205c31d9f7a987e0cb26918e83bd
vendor/lib64/libOmxAmrDec.so|03f9ce653729629dc0a2784df1c2ab69be9a2601
vendor/lib64/libOmxAmrwbplusDec.so|00d7c17f0abeb5e878c64bb06636e568b25d04ab
vendor/lib64/libOmxApeDec.so|7f490d0963d8b977ce623389b27ce6642a008690
vendor/lib64/libOmxApeDecSw.so|c922a55b408d3ef6368c87f236527e783731480d
vendor/lib64/libOmxEvrcDec.so|28dcac9103360d7f04a5b5e8cdbfb6b7244baef6
vendor/lib64/libOmxG711Dec.so|322307223653ea6bf7e5b6cb766c22083fccf1c8
vendor/lib64/libOmxQcelp13Dec.so|67af0ab07ecda998c80210b81da1c7b1a6ed845d
vendor/lib64/libOmxSwVdec.so|d4d61dbe5ff164f5ab3308c3553c4969f67a84d8
vendor/lib64/libOmxSwVencMpeg4.so|34e8d75d97d8cf62eaa52dd9a9e28f20e4316bbf
vendor/lib64/libOmxVpp.so|a09efcbeaa4f9de49792325b9e1c308d55ffce11
vendor/lib64/libOmxWmaDec.so|8c9eb1ca231eea48ee58d0006ef933407b321733
vendor/lib64/libstagefright_soft_qtiflacdec.so|12e17b5d96bb5526a5126561a2d1d727f73cd411
vendor/lib64/libvppclient.so|2e379fee2c6513a7e00f0918d958c7c0d64c11f1
vendor/lib64/libswvdec.so|888b704def0068f0ec882aa5227ba78bec56d522
vendor/lib64/libvpphvx.so|3091aa5f01d3b23bb22518e5984733234e61dbbd
vendor/lib64/libvpplibrary.so|26c02780487b89843d9aba1f15373e66ba26e9a5
vendor/lib64/libvpptestutils.so|94cf4f767b8244bb5708f06f1479cce769dc5bf8
vendor/lib64/vendor.qti.hardware.vpp@1.1.so|f7769685d9c0c74f8c8419db028a5d5c3f65a9da
vendor/lib64/vendor.qti.hardware.vpp@1.2.so|ca1906012d0ab6dc9048aa49703833512308e6cf
vendor/lib64/vendor.qti.hardware.vpp@1.3.so|99f7054e5a0e9eb214e27cf034785bc446187e20
vendor/lib/libAlacSwDec.so|e49062c9fd9377e8264bf8f7901394653b9f02dc
vendor/lib/libApeSwDec.so|f14f08a55b32cc252417e3970b1d2cb296d48fa0
vendor/lib/libdsd2pcm.so|427be2997fcd72e94c33d08b2cf1fde5bf969fd4
vendor/lib/libFlacSwDec.so|bba6d4155029b2fd1a3d2dfe9f75f422f0d8a35e
vendor/lib/libI420colorconvert.so|2471423164022733a1bc453355e04726740818b6
vendor/lib/libmm-color-convertor.so|6df18a4c8645407fde1b39ce1b76ce47f357da8e
-vendor/lib/libMpeg4SwEncoder.so|2ff27b13674b465166ab25938116a882a27430d8
vendor/lib/libOmxAacDec.so|5d53a6407f46cdde7d420fbe10a37373b0053704
vendor/lib/libOmxAlacDec.so|286272d63737fa4f9930913b9ee8f116b4fb8f24
vendor/lib/libOmxAlacDecSw.so|9c455d01e8f3f8663c464b9980e57ad735959529
vendor/lib/libOmxAmrDec.so|d06aff2857f5a716b036a5655f391f7539ee0ee1
vendor/lib/libOmxAmrwbplusDec.so|85247fca7f64c08a53eb48b443443a3b892235d7
vendor/lib/libOmxApeDec.so|3520930fca2ee05a2ce3e76b1d71bdbb6e9fb1f6
vendor/lib/libOmxApeDecSw.so|281c7f2ea570dab8d1ae73a385b62ad015a6dbf9
vendor/lib/libOmxDsdDec.so|2ed9ab0f0768c8cfd223762e09fb73a4e92423b0
vendor/lib/libOmxEvrcDec.so|394fdd9569f3dbd2484a456432640c25005fff77
vendor/lib/libOmxG711Dec.so|de4774eacbb34f3fd681bb2c8469c6406653e123
vendor/lib/libOmxQcelp13Dec.so|58370cbd70146383d766efc6cf945b07d9ffaa89
vendor/lib/libOmxSwVdec.so|6a6be9a282c0101134de7685c96e103ad51c17cb
vendor/lib/libOmxSwVencMpeg4.so|9daf4c33c65fc8cc2ae73bdb5bd080001ad89e07
vendor/lib/libOmxVpp.so|2f743b78f20928198c4d479580b0a3409190b981
vendor/lib/libOmxWmaDec.so|a8b216fd308b307e4ad5c32ec804aec437be94ff
vendor/lib/libstagefright_soft_qtiflacdec.so|39b8bcc52c94f62755590aadb99dc3bfff4e7662
vendor/lib/libvppclient.so|16af46b1995d6e7fff08ad1aa2de2c15b53e0735
vendor/lib/libvpphvx.so|530c8e40e403524e3a8102ad993f180355eabc8e
vendor/lib/libvpplibrary.so|991ab5282e84f44b9e83c79dd0f32a554a9f436f
vendor/lib/libvpptestutils.so|01a696efc0339537ed12a388fb50d16e8a12fb52
vendor/lib/libswvdec.so|01a01ac0456ce24acba9f61259975cf702925100
vendor/lib/vendor.qti.hardware.vpp@1.1.so|8df356bc93951b2072590ff17c5d7af08b4e8299
vendor/lib/vendor.qti.hardware.vpp@1.2.so|edd5e3b33c51c31c8e9e54912269e893c4e3c730
vendor/lib/vendor.qti.hardware.vpp@1.3.so|5daf9c261188ca05696002622509756d079177ca

# Mlipay
vendor/bin/mlipayd@1.1
vendor/etc/init/vendor.xiaomi.hardware.mlipay@1.1-service.rc
vendor/lib64/libmlipay@1.1.so
vendor/lib64/libmlipay.so
vendor/lib64/vendor.xiaomi.hardware.mlipay@1.0.so
vendor/lib64/vendor.xiaomi.hardware.mlipay@1.1.so

# Neural Networks - from LA.UM.9.1.r1-10600-SMxxx0.0
vendor/bin/hw/android.hardware.neuralnetworks@1.3-service-qti|726cff09d292b91d900c27bf06abf4b39ef7b531
vendor/etc/init/android.hardware.neuralnetworks@1.3-service-qti.rc|4b7f2c5f914f3eef38f19936c0a06efc09b5b28c
-vendor/etc/vintf/manifest/android.hardware.neuralnetworks@1.3-service-qti.xml|ac07e83ba7c2a87a2f216f04ec84df4539ea8507
-vendor/etc/vintf/manifest/android.hardware.neuralnetworks@1.3-service-qti-hta.xml|57e182a296097870a4c4ed1579c67da20c2b69de
vendor/lib64/libnpu.so|23bb17b8c11fd707af64d8fba1ae02c256da32e3
vendor/lib64/libhexagon_nn_stub.so|6fdaffc1c9372c0e70bcd82f5d806162ca31c176
vendor/lib64/libhta_hexagon_runtime.so|0d6d16ce31d7698a2c913b0f97db57dec88ecdbe
vendor/lib64/unnhal-acc-adreno.so|461821fa5e040623a4da8ce9c06345570057b0cc
vendor/lib64/unnhal-acc-common.so|e37d2113f99506f1de85902a0fdee0b443342942
vendor/lib64/unnhal-acc-hta.so|6cb1ca10aa1c82e59641d545d9f1ac7f00df8621
vendor/lib64/unnhal-acc-hvx.so|00eb79608cb6e3f19eaf9389632fdbfa03b2df62

# Peripheral - from LA.UM.9.1.r1-10900-SMxxx0.0
vendor/bin/pm-proxy|0704192692efb4b79e8cb1a2252625ad24468805
vendor/bin/pm-service|1a48e2a015181b351374b99053fb5dee8e2750ee
vendor/lib64/libperipheral_client.so|9bfd41e276e16b8f7c6808f3d87531fc5be4cdd5

# Qualcomm MSM Interface - from LA.UM.9.1.r1-10900-SMxxx0.0
system_ext/etc/permissions/qti_libpermissions.xml|593bcb72cce68ceb0a70f50bcae7d460114e7c62
system_ext/etc/permissions/qti_permissions.xml|e6ff4572352b1a4f91b6b9d7cbb1cad9924410a0
vendor/bin/irsc_util|de2df4863eda54a6f784910752022f5836f01c18
vendor/bin/pd-mapper|399e10f17d89ea5e75c7ac5037d5f43b30c4ab13
vendor/lib64/libdiag.so|24b12df0c1e267435ae2c55f83f0a712c131c6c2
vendor/lib64/libdsutils.so|ad4456fe2647ddb1688a81382c8d5a47b530df99
vendor/lib64/libidl.so|112762408586f0643a49c23b05247b4d6e0b96b0
vendor/lib64/libminkdescriptor.so|3fb52e7d3c9c213df62881a7068baab82cbbd78e
vendor/lib64/libqcci_legacy.so|2e0aeab7463db5a518d165c01f33af40ada20eff
vendor/lib64/libqdi.so|4d106cd864bafb28c94bf1d40f41346bfe886152
vendor/lib64/libqdp.so|99e310c56bd4e9c69ca0cfd07c7e10753c3fad7a
vendor/lib64/libqmi.so|156ce26f797cf5d30d716c48e57c5a20edfaebe4
vendor/lib64/libqmi_cci.so|353dc930c0c7458e266cfc477aaf17612a25ade3
vendor/lib64/libqmi_client_helper.so|d51ecd5589ac932b819bebb6b5be032ab51825a1
vendor/lib64/libqmi_client_qmux.so|ae02c5580ae5f3c9b2247029ed3741440bc42027
vendor/lib64/libqmi_common_so.so|424070a87d7da938a9b5677e7adb7166fb9d6820
vendor/lib64/libqmi_csi.so|744a6e70b146feb391375c5b327014fd77db7d38
vendor/lib64/libqmi_encdec.so|540a9638c374a91849625d44873564482c639be4
vendor/lib64/libqmiservices.so|277eca2923bab3a7732fc0791a105e4b03723a70
vendor/lib/libdiag.so|f289884aa426a59e0af3bdf6b57f7efdf519f277
vendor/lib/libdsutils.so|bc42e52cf8ffa5ec9c2aa46ad752d9591b54ac0b
vendor/lib/libidl.so|87b1e8345db9df024064ccfe51cdfcf0bb038b1b
vendor/lib/libminkdescriptor.so|c070295572b0c6d38d5b218fa7a8600abdaee218
vendor/lib/libqcci_legacy.so|25b25d4cae43d6c9fb9d400f0c7009ee86157ca7
vendor/lib/libqdi.so|61e3989f4a1ea3ac7d02e5a762843e7952f38634
vendor/lib/libqdp.so|6c43ca06dbeb6e8d421e5f7cd3e3636e543ae162
vendor/lib/libqmi.so|8f7625711d538a9ae725f60b5f6930e3eca2ebbe
vendor/lib/libqmi_cci.so|873f59ddfa864340b9a8831cbdd9a44e8336a9b1
vendor/lib/libqmi_client_helper.so|deb1497156acdcb1ad8a0c2ecc05d2671780f8c9
vendor/lib/libqmi_client_qmux.so|5d59df1807623c7ac41320a20f33e17cfe16ebe0
vendor/lib/libqmi_common_so.so|7fb765208b835f46ca16a26af718b3ce0f98a7df
vendor/lib/libqmi_csi.so|dd92fdf8cdcaf39d978d8b2843bfd205d963bad6
vendor/lib/libqmi_encdec.so|eaeec1f1798793088a40658b844131e09cdbbbb1
vendor/lib/libqmiservices.so|77cb7ae10af902bfc1cfa17a8765c4323d94bc61

# Radio (system) - from LA.QSSI.12.0.r1-05600-qssi.0
system_ext/app/DeviceInfo/DeviceInfo.apk|feb8408ac0d946c39eef266e22017a1514cee4c8
system_ext/app/QtiTelephonyService/QtiTelephonyService.apk|c8a2ce9a86e542daf835dc0bfa1a63ed7e412d84
system_ext/app/embms/embms.apk|0b866b87693deb439178d524ac4edb12308898fc
system_ext/priv-app/qcrilmsgtunnel/qcrilmsgtunnel.apk|47ff9a1712950fc9f877691f2712d8aa7fcf3420
product/etc/permissions/telephony_product_privapp-permissions-qti.xml|42f4553b61731e56d253766554d4479519cea3ff
system_ext/etc/permissions/embms.xml|22e7474091f9f71f02dd0cfc76cfa8848a46f079
system_ext/etc/permissions/qcrilhook.xml|30397e293b2c40e6b7a1d11c2a615cdd05de625a
system_ext/etc/permissions/telephony_system-ext_privapp-permissions-qti.xml|4f0056403f56928b8c75a617ba582f17061f89ae
system_ext/etc/permissions/telephonyservice.xml|b7831598d3c19c6ce4ef431d1cc44d94c3c35a8d
system_ext/framework/embmslibrary.jar|2af81ca155fcad32d2b07024da9901af4a97ea26
system_ext/framework/qcrilhook.jar|f251fd8cf621c66a970597954c257d69b6136eda

# Radio (vendor) - from LA.UM.9.1.r1-10900-SMxxx0.0
vendor/bin/hw/qcrild|103923256857de39cf8344aadab8d02877bd44ae
vendor/bin/netmgrd|21f63558130843b7a930463aa44830c3583ba1f2
vendor/bin/port-bridge|2ad5bda85cbe0d9ef49c07f3ac8d2c22820d00ac
vendor/bin/qrtr-cfg|2d8fac6772adf1a7cc34d7b23d560784dda60f20
vendor/bin/qrtr-lookup|b414c74cd675518271712c2d757a3faf717260da
vendor/bin/qrtr-ns|3e7e8927f171d3a4bab54602521e3bc22d80699c
vendor/bin/qti|275dcfe2ae7e2b0df115a37693c7d7004525e412
vendor/bin/rmt_storage|b9fc7997cd07df1cf8c1d6e7b5f3ced772cbac1a
vendor/bin/tftp_server|d3c9f04e306222a13d51dc3ee089688cc6a3c929
vendor/etc/data/dsi_config.xml|27a9616809d2e2355640d5e7cdb7268eba9f6a0d
vendor/etc/data/netmgr_config.xml|b87b057d87139c7ac866dc5f75c498de1e8ab361
vendor/etc/init/dataadpl.rc|cd4907d9bfd438fe5f5c86f5d6cec590ac0bac2a
vendor/etc/init/dataqti.rc|6abfd1a850d782adbbb6f42c9d8ca870036b2ad1
vendor/etc/init/init-qcril-data.rc|890ac72fa49d0e52a263175a7b5b550539287800
vendor/etc/init/ipa_fws.rc|f1826b81077f51470c97781823f109f12361ac8b
vendor/etc/init/netmgrd.rc|5c592bd2cf775462e147d3def97e99abbac4631e
vendor/etc/init/port-bridge.rc|e52d61a0de5e8a3b21bfbfca929e862422645377
vendor/etc/init/qcrild.rc|17cf4934bf443cf6469d8b3ff622eeb0e4a0aac6
vendor/etc/init/vendor.qti.rmt_storage.rc|bc212c6353c2ded44ae4d759605fbbe55aa4fa3f
vendor/etc/init/vendor.qti.tftp.rc|b27f188cbffba470a4510d50e46ff7c8446c22cb
vendor/lib64/deviceInfoServiceModule.so|d9c829e17f043facc78d142c20a644a37261f777
vendor/lib64/libconfigdb.so|fd3408904206b85a61a01585022c7ecc71e98516
vendor/lib64/libdsi_netctrl.so|e21d767177441f9dfa5e2199f1bec99223870c0e
vendor/lib64/liblqe.so|20b4c0a572a0001b3ce5d7cced0496c4e001978d
vendor/lib64/libmdmdetect.so|de2a1c7a920b212379a5e0104c4e79fc761b71ce
vendor/lib64/libnetmgr.so|dc09504d4ffdccad0f11aca8868963a8c1179edb
vendor/lib64/libnetmgr_common.so|8addecc0d970bb5b02d270c3d4cd62d73a4f7a8f
vendor/lib64/libnetmgr_nr_fusion.so|bbe6fd1560d4da257d6f00f2769dc85892cb2517
vendor/lib64/libnetmgr_rmnet_ext.so|a3ec030ddb6b8447a86480560a966d2a820e8766
vendor/lib64/libnlnetmgr.so|b5c3f90290b7dad0e323e81be4769a9a7bf869ce
vendor/lib64/liboemaids_vendor.so|7cfe06980e8cdcb60606d9bc6ad060788eb443b1
vendor/lib64/libpdmapper.so|9e49ead34950d5ccbece6efa7291e677e50ba904
vendor/lib64/libpdnotifier.so|bf2aeea4048b8d8c5595f27eb1d10ceeceb7e07f
vendor/lib64/libqcmaputils.so|74c3ae9ab1dcdab449d920d49e2c523ab5e23ee0
vendor/lib64/libqcrilFramework.so|06edc0a0e731b7796e65e39e90374b5a9178242d
vendor/lib64/libqcrildatactl.so|6b8f581a702bf25799232c3a5def95c5b6d6e8fd
vendor/lib64/libqrtr.so|56cb57fbf00b3644de26da70aaaa6ed4ae8e4383
vendor/lib64/libqsocket.so|9275cfbf7025c064fe5086ed76386635314aab4a
vendor/lib64/libril-qc-hal-qmi.so|a23e593ff338273b778b308da395cf83a2170177
vendor/lib64/libril-qc-logger.so|4d438fc40b4587446c2b47aaf9a9480d5192b4f2
vendor/lib64/libril-qc-ltedirectdisc.so|2a58b56f86df6beb599d22c0d69714a1b2d6c387
vendor/lib64/libril-qc-radioconfig.so|15e7e1e68164d695a41939d43983c814b26551d6
vendor/lib64/libril-qcril-hook-oem.so|e9b22a1240aa0d5ceaa2478cef14a2fdaff5c99e
vendor/lib64/librilqmiservices.so|88de6172253dfa881162ad31c49b4f03492b75c7
vendor/lib64/libsettings.so|5ecaa3c14611751fc4f6fa62601381f24fb4e0b4
vendor/lib64/libsystem_health_mon.so|ae470a17a486fcbc97a47d3ea72bdc34e40ff075
vendor/lib64/qcrild_librilutils.so|cb2bde367a7581e75b943ea54f242acf247da5c5
vendor/lib64/qtibus.so|6e8283a60bc137d45ac0aa02ed9d7a2b36fa0ec6
vendor/lib64/qtimutex.so|e4cee98bfce8ec145ff9a088cd8d6f736fd8686d
vendor/lib64/vendor.qti.hardware.radio.am@1.0.so|f07351c06ab72cd8bb7ce5470fc2c2d6ec82ec60
vendor/lib64/vendor.qti.hardware.radio.internal.deviceinfo@1.0.so|c1110e2a16fd7505403ff5fdb188f4bf79a15a66
vendor/lib64/vendor.qti.hardware.radio.lpa@1.0.so|0adf6914c748d64478bc1f8621b1019718b98873
vendor/lib64/vendor.qti.hardware.radio.lpa@1.1.so|4f5babb3ab95e75ec83021630088b6bf5f29e8a9
vendor/lib64/vendor.qti.hardware.radio.qcrilhook@1.0.so|e4200bbfa997049ec71474fe82c77bbdb8aa8b0d
vendor/lib64/vendor.qti.hardware.radio.qtiradio@1.0.so|878abcaed56bbb9cbe075a592a96f551c41574dd
vendor/lib64/vendor.qti.hardware.radio.qtiradio@2.0.so|613283f40fb04592abc8ae4f506f3fca7a2d1a3a
vendor/lib64/vendor.qti.hardware.radio.qtiradio@2.1.so|e383177333b937afb32739f47ce79380242b398d
vendor/lib64/vendor.qti.hardware.radio.qtiradio@2.2.so|fdbd9f2a017ac3d826400cba047e02e45a3a3ba3
vendor/lib64/vendor.qti.hardware.radio.qtiradio@2.3.so|dbb476cf39b2f76e480d745493ea7f30645383f1
vendor/lib64/vendor.qti.hardware.radio.qtiradio@2.4.so|6fb8919fc1ece30754fef62bb3b466e67f905db7
vendor/lib64/vendor.qti.hardware.radio.qtiradio@2.5.so|4c165c6fcbcee0bcea134d54e8b17a0a613e74c6
vendor/lib64/vendor.qti.hardware.radio.qtiradio@2.6.so|6ab27f0a3b8163022747d9ce7f7f76669b20c935
vendor/lib64/vendor.qti.hardware.radio.uim@1.0.so|d1e7c80f2881f6e6b71877c28332a850bbd82eb1
vendor/lib64/vendor.qti.hardware.radio.uim@1.1.so|037a8930db44d600fbe226aa5bba02181bc0169e
vendor/lib64/vendor.qti.hardware.radio.uim@1.2.so|01096f66379ea94a994875165af24f230e08115f
vendor/lib64/vendor.qti.hardware.radio.uim_remote_client@1.0.so|7b7fcbd9a807c1d4f68850b3b3636b920d73cb5a
vendor/lib64/vendor.qti.hardware.radio.uim_remote_client@1.1.so|905c4fcb1f3fdf65894362cd07921c15b0112bb3
vendor/lib64/vendor.qti.hardware.radio.uim_remote_client@1.2.so|c47773294b67b744ca1abbe2df0a03748382c842
vendor/lib64/vendor.qti.hardware.radio.uim_remote_server@1.0.so|f6deedbd10265f070baff8610c9352d5d6c05650
vendor/lib64/vendor.qti.ims.rcsconfig@1.1.so|44e9eb22659078d9dc35353c8a442d2411f4f79a
vendor/radio/qcril_database/qcril.db|f51df17ac3bf25a225e3ba15c830b1d0d2bf4e85
vendor/radio/qcril_database/upgrade/0_initial.sql|e00b243261d8941802bdea9d4e659dc5e927c216
vendor/radio/qcril_database/upgrade/1_version_intro.sql|67b96cb3e94737bfe271b2519b9eb5fae17373a2
vendor/radio/qcril_database/upgrade/2_version_add_wps_config.sql|b4a825ba20fea3e2f20c7f02c8bd64596c24a75e
vendor/radio/qcril_database/upgrade/3_version_update_wps_config.sql|0571aacaf9fc0868c48bba2f7542f5b4e68c9022
vendor/radio/qcril_database/upgrade/4_version_update_ecc_table.sql|0734c6a2863edadc7a8422b8310d267c594d11a0
vendor/radio/qcril_database/upgrade/5_version_update_ecc_table.sql|fcb2cba3bfd718ecdc8d3cfac3a0b2b2c7e8c506
vendor/radio/qcril_database/upgrade/6_version_update_ecc_table.sql|0fdf4b6ccb48906b37885e060429f79c9fd6bdbf
vendor/radio/qcril_database/upgrade/7_version_update_ecc_table.sql|9a76d5747da2876b87b214579c9d74ae92d218d7

# Radio - Telephony - from coral - google/coral/coral:12/SPB5.210812.002/7671067:user/release-keys
system_ext/app/datastatusnotification/datastatusnotification.apk|f33ce45ec04a67b88e9f4da52378153c77d21e77

# Telephony - from smali edit: https://gist.github.com/PIPIPIG233666/72806386c8b93729ce7f2b2c263d8889
system_ext/framework/qti-telephony-common.jar|7a3f1fa141520e83e58d4afc6eebfc4f38dc9f27

# Radio (system) - IMS - from LA.QSSI.12.0.r1-05600-qssi.0
system_ext/etc/permissions/com.qualcomm.qti.imscmservice.xml|db25ef24f1937366d58a53b4f4b8923bc9e98d2d
system_ext/app/imssettings/imssettings.apk|8b47c43d56228dcce93cc8c07c6ceb08cb3d2fe5
system_ext/etc/permissions/com.qualcomm.qti.imscmservice-V2.0-java.xml|bd9fc166b542b4e730f194ebc996957770d9d497
system_ext/etc/permissions/com.qualcomm.qti.imscmservice-V2.1-java.xml|b40fc74f7d5e58b4e918f952b89a79cf2a5c4088
system_ext/etc/permissions/com.qualcomm.qti.imscmservice-V2.2-java.xml|bfceff47fb0b55a418bed71de6050d876a776ac7
system_ext/framework/com.qualcomm.qti.imscmservice-V2.0-java.jar|33f9e0fd98d6475808a9eedf64268c20b40fd35c
system_ext/framework/com.qualcomm.qti.imscmservice-V2.1-java.jar|92c25f99395fc44b5978b46069e0b3157fbddb1e
system_ext/framework/com.qualcomm.qti.imscmservice-V2.2-java.jar|4c2bd89c3216d0bab559eab477fac6ce3ede895e
system_ext/framework/com.qualcomm.qti.uceservice-V2.0-java.jar|b9a40dc99ee758ad1f828eb2a189e9611b4d7cc1
system_ext/framework/com.qualcomm.qti.uceservice-V2.1-java.jar|054c5ea1519ffe92ebd153897075fda8f4effcf9
system_ext/framework/com.qualcomm.qti.uceservice-V2.2-java.jar|275b1cd69af00c3668376359f73b28b41ca0a473
system_ext/framework/vendor.qti.ims.callinfo-V1.0-java.jar|80f964af0edd0093fee1dd84d2c54519d653231a
system_ext/framework/vendor.qti.ims.rcsconfig-V1.0-java.jar|907a833d2c6716024c4272445366f0ed7c462313
system_ext/lib64/com.qualcomm.qti.imscmservice@1.0.so|32ead8d4c6ef9688a9c40c7db34aab415616c14d
system_ext/lib64/com.qualcomm.qti.imscmservice@2.0.so|f49fccd9c16db8262760b0874642ed8bd914ec42
system_ext/lib64/com.qualcomm.qti.imscmservice@2.1.so|3a6d149dac78c26e1800ea60624cb784f796ba7f
system_ext/lib64/com.qualcomm.qti.imscmservice@2.2.so|ade8400ff38e6dc33b163361e4b93589a2223054
system_ext/lib64/com.qualcomm.qti.uceservice@2.0.so|b15fc0ba498184d9a1706693c8db5d1c1effe8f5
system_ext/lib64/com.qualcomm.qti.uceservice@2.1.so|94048225f2a95b752a4e9d9886fe1f45a96edbd7
system_ext/lib64/com.qualcomm.qti.uceservice@2.2.so|65d8b7d47d5124d6940e9fe3a3169ed88673a469
system_ext/lib64/lib-imsvideocodec.so|121ad1993e64ebdeba70ce600bda74d4e306af27
system_ext/lib64/lib-imsvt.so|d995e4a287424ee5b5612b3d0f003797fdfcb332
system_ext/lib64/lib-imsvtextutils.so|16bed08e80919635fcb7ace934bd5f16f059c182
system_ext/lib64/lib-imsvtutils.so|9e45b76b14600df92782e6c8213af0dcddbe80be
system_ext/lib64/libimscamera_jni.so|ff3d65093f5bf19fba95798b0a121ee510b0f72e
system_ext/lib64/libimsmedia_jni.so|9f192af40439abb04d5d5f0f3de5b772c9381114
system_ext/lib64/vendor.qti.ims.callcapability@1.0.so|1429bb929a0cd03bc1dee0192db235f1d0858b2f
system_ext/lib64/vendor.qti.ims.callinfo@1.0.so|528446b14c9db5808e4fcec973a094eb40780a8f
system_ext/lib64/vendor.qti.ims.factory@1.0.so|7d468f0636ce9671d23492b06d0ab16363f52ae1
system_ext/lib64/vendor.qti.ims.rcsconfig@1.0.so|55e93923ac415862b15a7777220e100b8484e5ba
system_ext/lib64/vendor.qti.ims.rcsconfig@1.1.so|2a7af391c47b855be106f256d3e9a6e87838b9d5
system_ext/lib64/vendor.qti.ims.rcsconfig@2.0.so|1efe54fda3b333b7cf5ec25c6a7d91f375c2c913
system_ext/lib64/vendor.qti.ims.rcsconfig@2.1.so|50ce3b71018e11090d122be2ef06f63ccd4a61bc
system_ext/lib64/vendor.qti.imsrtpservice@3.0.so|0c11ff5a7a671073ee40e17d46aa8b7acbf1dc0a
system_ext/priv-app/ims/ims.apk|956e73e4d231daa43f6f7e6f105b943f8883dd81

# Radio (vendor) - IMS - from LA.UM.9.1.r1-10900-SMxxx0.0
vendor/bin/ims_rtp_daemon|c5c4ead4ef77b0b8e34f27015c3ee10381bb6996
vendor/bin/imsdatadaemon|04cf2f5d8a2615db38aeb39cd806a0db5ac1908d
vendor/bin/imsqmidaemon|bd169127f1ce80ddccfc90710be975db85c3a06e
vendor/bin/imsrcsd|bf29aac14856f29268c01599e5f6c7c6ae520685
vendor/etc/init/ims_rtp_daemon.rc|06510e936890f51aeb76f2cf3ed5dbe45e67ac20
vendor/etc/init/imsdatadaemon.rc|29face37c174aebcd1358f7d7ad0bd4baf83063b
vendor/etc/init/imsqmidaemon.rc|dda16d842b7c65296e97bc9921b723a43b152ba3
vendor/etc/init/imsrcsd.rc|2dc42ff6e4b6dd389bd3bc9a7af30dec2f1a45df
vendor/etc/seccomp_policy/imsrtp.policy|7ea8b4012da7bde98fc91bd882185b32784793cc
vendor/lib64/com.qualcomm.qti.imscmservice@1.0.so|e7bdf5fb5fba0c3e71ef73e79c53922a7eddd989
vendor/lib64/com.qualcomm.qti.imscmservice@2.0.so|79bcaaa1aa0e05ba1595d0dab3d2bbc7d194c19b
vendor/lib64/com.qualcomm.qti.imscmservice@2.1.so|58d6243700e63d450599a29f3aaefbeee526fd7f
vendor/lib64/com.qualcomm.qti.imscmservice@2.2.so|c58b9d477bc4ce70d01771832049479d6354cfd1
vendor/lib64/com.qualcomm.qti.uceservice@2.0.so|f24e50df28484f5ae54d8a16eccc7fb4b0547778
vendor/lib64/com.qualcomm.qti.uceservice@2.1.so|570827f452ff47007e70dd0d77d633132a2f5d00
vendor/lib64/com.qualcomm.qti.uceservice@2.2.so|95164d139d37362aeaec5f069cff40a68f48ea70
vendor/lib64/com.qualcomm.qti.uceservice@2.3.so|cbe615832e80e9bac3d84989a404605b7ed6d27f
vendor/lib64/lib-imscmservice.so|e3559e804359dd90cda664e2fc415a1d2f42d29b
vendor/lib64/lib-imsdpl.so|f13145a7946b359249c0d73369cbeb3fb93c57e2
vendor/lib64/lib-imsqimf.so|6935bc409e72781d92b42e222ef9942b849fc6e6
vendor/lib64/lib-imsrcs-v2.so|1662480a890dafcfd6e028759bc76668112e3ee3
vendor/lib64/lib-imsrcsbaseimpl.so|8b765d37ac42cb813cf28995fb1359f42f26912f
vendor/lib64/lib-imsvtcore.so|ea9a1c301c78365fb0abdd126fae59de6f238206
vendor/lib64/lib-imsxml.so|f0c84e6461e37dab57d501c72b03536192fa2021
vendor/lib64/lib-rtpcommon.so|852ddb0fb054292f416d524215deb15fc60731de
vendor/lib64/lib-rtpcore.so|18f4dd4743b322eb66ff976615b67fc46b99c039
vendor/lib64/lib-rtpsl.so|f73be5c5cca3fd33db24099b5b0eb3f960b2b225
vendor/lib64/lib-siputility.so|d478b100a73911120e3cb92474aa0f143e5345a9
vendor/lib64/lib-uceservice.so|5356c7f1748d55ed7abef67d950b186e0a8e2f0f
vendor/lib64/librcc.so|f5a6a1f8cdec5f71ce3a0396cf2d9ef16dc3aa0d
vendor/lib64/vendor.qti.hardware.radio.ims@1.0.so|5fb6c184626d96792cbb3768749de61270f01d48
vendor/lib64/vendor.qti.hardware.radio.ims@1.1.so|16848bf2a161dda854d22f611e7839878d8001e2
vendor/lib64/vendor.qti.hardware.radio.ims@1.2.so|3c242eceae6205ca31c1330e10db013c4fb1d417
vendor/lib64/vendor.qti.hardware.radio.ims@1.3.so|8faf9ab9bc8029f67fa15234ace7449fe0591b97
vendor/lib64/vendor.qti.hardware.radio.ims@1.4.so|63539636d3b30ccb5dbffc59ad54cc7b8acc22f0
vendor/lib64/vendor.qti.hardware.radio.ims@1.5.so|df1cf8936a07a651ee5c9c5d180497c71fe8ed08
vendor/lib64/vendor.qti.hardware.radio.ims@1.6.so|545dfcaa49cf9e4f3c7592bc0217a423b22b5809
vendor/lib64/vendor.qti.hardware.radio.ims@1.7.so|2a475ae8addc95ad84128c6c04a6935003fca919
vendor/lib64/vendor.qti.ims.callcapability@1.0.so|17893cbdeb14c2eeb3e00773ff796f37accc5595
vendor/lib64/vendor.qti.ims.callinfo@1.0.so|7f848a1b18ff34de41caa1dbf81c9631e930b932
vendor/lib64/vendor.qti.ims.factory@1.0.so|21c91c2aea181c6bb0f66790fd82944dcf117a6d
vendor/lib64/vendor.qti.ims.factory@1.1.so|b4c803a2d5f3bc7a1de93957d163405168308db4
vendor/lib64/vendor.qti.ims.rcsconfig@1.0.so|8297d4f1960c5d801adb9eebca90c3e6570be74d
vendor/lib64/vendor.qti.ims.rcsconfig@1.1.so|44e9eb22659078d9dc35353c8a442d2411f4f79a
vendor/lib64/vendor.qti.ims.rcsconfig@2.0.so|bca488a80cd89cbdc2f825d9a4c2c5963e53f250
vendor/lib64/vendor.qti.ims.rcsconfig@2.1.so|38a159f3e564dccbfb9d5170ea2ce8da49cb919f
vendor/lib64/vendor.qti.imsrtpservice@3.0.so|460e589128fce0b0e83bb3c75aa32f7e1a9494fd
vendor/lib64/vendor.qti.imsrtpservice@3.0-service-Impl.so|beeb9324900da6582f92ffab225cc0d314bf71bd

# Snapdragon Computer Vision Engine - from LA.UM.9.1.r1-10900-SMxxx0.0
vendor/lib64/libfastcvdsp_stub.so|af78b8104678b87fbe07d679448ae2f4bc5c461e
vendor/lib64/libfastcvopt.so|3dfc4166e55434dbe982b08be71669d1cc06a4ea
vendor/lib64/libscveCommon.so|1603e11f268390739f9d0297ab0b8e84886becab
vendor/lib64/libscveCommon_stub.so|05f190f1accbfb203f45173b08b78ef88dcc6434
vendor/lib64/libscveObjectSegmentation.so|1598ad3797897eb3331a545c74d937c0ae0aeddf
vendor/lib64/libscveObjectSegmentation_stub.so|ed93b42b3e45b030ca413cb8e82283363a95dbde
vendor/lib64/libscveObjectTracker.so|0cf7d3128ae0019d882da5c9d8d9186d549177d1
vendor/lib64/libscveObjectTracker_stub.so|6f45aa215de07dfeacf811c06af750206bb1cf58

# Sensors
vendor/bin/hw/android.hardware.sensors@2.0-service
vendor/bin/sensors.qti
vendor/etc/init/android.hardware.sensors@2.0-service.rc
vendor/etc/sensors/hals.conf
vendor/lib64/android.hardware.sensors@2.0-impl.so
vendor/lib64/libsensorcal.so
vendor/lib64/libsensorslog.so
vendor/lib64/libsns_fastRPC_util.so
vendor/lib64/libsns_low_lat_stream_stub.so
vendor/lib64/libsnsdiaglog.so
vendor/lib64/libssc.so
vendor/lib64/libssc_default_listener.so
vendor/lib64/sensors.ssc.so

# Sensors (init script) - from CAF
vendor/etc/init/init.vendor.sensors.rc|76af799ee1c3b4a7fd0a29f1cb133e520e9721f2
vendor/etc/init/vendor.sensors.qti.rc|551e85b6278214e284151a507c909b17d800a254

# Sensor Configs
vendor/etc/sensors/config/ak991x_dri_0.json
vendor/etc/sensors/config/bma2x2_0.json
vendor/etc/sensors/config/bme680_0.json
vendor/etc/sensors/config/bmg160_0.json
vendor/etc/sensors/config/bmi160_0.json
vendor/etc/sensors/config/bmm150_0.json
vendor/etc/sensors/config/bmp285_0.json
vendor/etc/sensors/config/bu52053nvx_0.json
vendor/etc/sensors/config/cm3526_0.json
vendor/etc/sensors/config/default_sensors.json
vendor/etc/sensors/config/dps368_0.json
vendor/etc/sensors/config/icp101xx_0.json
vendor/etc/sensors/config/lsm6ds3_0.json
vendor/etc/sensors/config/lsm6ds3c_0.json
vendor/etc/sensors/config/lsm6dsm_0_16g.json
vendor/etc/sensors/config/lsm6dsm_0_8g.json
vendor/etc/sensors/config/lsm6dsm_0.json
vendor/etc/sensors/config/lsm6dso_0_16g.json
vendor/etc/sensors/config/lsm6dso_0_8g.json
vendor/etc/sensors/config/lsm6dso_0.json
vendor/etc/sensors/config/ltr308_0_on_change.json
vendor/etc/sensors/config/pah_8011_0_platform.ppg_enable_ex_1.json
vendor/etc/sensors/config/pah_8011_0_platform.ppg_enable_ex_2.json
vendor/etc/sensors/config/rpr0521rs_0.json
vendor/etc/sensors/config/shtw2_0.json
vendor/etc/sensors/config/sns_amd.json
vendor/etc/sensors/config/sns_amd_sw_disabled.json
vendor/etc/sensors/config/sns_amd_sw_enabled.json
vendor/etc/sensors/config/sns_aont.json
vendor/etc/sensors/config/sns_basic_gestures.json
vendor/etc/sensors/config/sns_bring_to_ear.json
vendor/etc/sensors/config/sns_ccd.json
vendor/etc/sensors/config/sns_cm.json
vendor/etc/sensors/config/sns_dae.json
vendor/etc/sensors/config/sns_device_orient.json
vendor/etc/sensors/config/sns_diag_filter.json
vendor/etc/sensors/config/sns_distance_bound.json
vendor/etc/sensors/config/sns_dpc.json
vendor/etc/sensors/config/sns_facing.json
vendor/etc/sensors/config/sns_fmv.json
vendor/etc/sensors/config/sns_geomag_rv.json
vendor/etc/sensors/config/sns_gyro_cal.json
vendor/etc/sensors/config/sns_heart_rate.json
vendor/etc/sensors/config/sns_mag_cal.json
vendor/etc/sensors/config/sns_multishake.json
vendor/etc/sensors/config/sns_pedometer.json
vendor/etc/sensors/config/sns_rmd.json
vendor/etc/sensors/config/sns_rotv.json
vendor/etc/sensors/config/sns_smd.json
vendor/etc/sensors/config/sns_tilt.json
vendor/etc/sensors/config/sns_tilt_sw_disabled.json
vendor/etc/sensors/config/sns_tilt_sw_enabled.json
vendor/etc/sensors/config/sns_tilt_to_wake.json
vendor/etc/sensors/config/sns_wrist_pedo.json
vendor/etc/sensors/config/stk3x3x_0.json
vendor/etc/sensors/config/sx932x_0.json
vendor/etc/sensors/config/talos_ak991x_0.json
vendor/etc/sensors/config/talos_irq.json
vendor/etc/sensors/config/talos_lsm6ds3c_0.json
vendor/etc/sensors/config/talos_power_0.json
vendor/etc/sensors/config/talos_stk3x3x_0.json
vendor/etc/sensors/config/tmd2725.json
vendor/etc/sensors/config/tmx4903.json
vendor/etc/sensors/sns_reg_config

# Soter - from LA.UM.9.1.r1-10900-SMxxx0.0
app/SoterService/SoterService.apk:vendor/app/SoterService/SoterService.apk|6a4eabf9ed7303da6a17eb9e3483758158b41842
vendor/bin/hw/vendor.qti.hardware.soter@1.0-service|8e315a85eeeb94a51f1533c80212d2fc0ec88760
vendor/etc/init/vendor.qti.hardware.soter@1.0-service.rc|76447a61ad5529949365eeb7e8ca000e48bd28ae
vendor/lib64/vendor.qti.hardware.soter@1.0.so|52f410430054a012a983529b0ee1ed3b689b9dcb
vendor/lib64/hw/vendor.qti.hardware.soter@1.0-impl.so|dcdca96d86411b7cfe7200c07570a341d35e5607

# Thermal
vendor/lib64/libthermalclient.so

# Thermal Engine
vendor/bin/thermal-engine
vendor/etc/thermal-engine.conf
vendor/etc/thermal-engine-camera.conf
vendor/etc/thermal-engine-high.conf
vendor/etc/thermal-engine-map.conf
vendor/etc/thermal-engine-pubgmhd.conf
vendor/etc/thermal-engine-sgame.conf
vendor/etc/thermal-engine-studio.conf
vendor/etc/thermal-engine-tgame.conf
vendor/lib64/libthermalfeature.so

# Thermal Engine - from Xiaomi
vendor/etc/thermal-engine-normal.conf|984d9719e185b13e32d1c7ec11b78dfc18079ed0

# Thermal (init script) - from LA.UM.8.9.r1-07100-SM6xx.0
vendor/etc/init/init_thermal-engine.rc|f0d14aa4734b2e8afd61a4eed73238187b268f48

# Time - from LA.UM.9.1.r1-10900-SMxxx0.0
vendor/app/TimeService/TimeService.apk|1a5f39aa2969feee50ff81ec870b5e2669ae515e
vendor/bin/time_daemon|17377813bbc330c23d2fee77be21fe24d8aa131e
vendor/etc/init/init.time_daemon.rc|b253ca2a498757e14e1d7a051bf504ae09218f51
vendor/lib64/libtime_genoff.so|7b8bf7bf1eaa4df8f6613f4ece711a0797cd2e46

# Trusted User Interface - from LA.UM.9.1.r1-10900-SMxxx0.0
vendor/bin/hw/vendor.qti.hardware.tui_comm@1.0-service-qti|15378114c18fd1b1c8f9671f656396285ad1de48
vendor/etc/init/vendor.qti.hardware.tui_comm@1.0-service-qti.rc|2cfc563d7e1579374f001c94588fae7835a12ffc
vendor/lib64/vendor.qti.hardware.tui_comm@1.0.so|938262f1c75299523dc8e5c4e6a793753b209c40

# WiFi - from davinci-user 11 RKQ1.200826.002 21.6.11 release-keys
vendor/bin/cnss-daemon|49166ade5d73d8f4a79cd8cc2e5db5ebb16dba1a
vendor/bin/nv_mac|292eab960355eae44a338b2011b0032bc7df422e
